[ {
  "gameState" : {
    "id" : 64,
    "teamCyan" : "GRIPS",
    "teamMagenta" : "",
    "pointsCyan" : 0,
    "pointsMagenta" : 0,
    "gameTimeNanoSeconds" : 2498602000,
    "state" : "RUNNING",
    "phase" : "PRODUCTION",
    "gripsColor" : "CYAN"
  },
  "timeStamp" : 1641916181781,
  "activeProductTasks" : [ ],
  "activePartDemands" : [ ],
  "activeLockParts" : [ ],
  "robotBeaconSignals" : [ {
    "beaconSignalId" : 78,
    "seq" : 10,
    "teamColor" : "CYAN",
    "timeNanoSeconds" : 1641916176209260666,
    "robotId" : "1",
    "robotName" : "R_1: Grips1",
    "teamName" : "Grips",
    "poseX" : 4.5,
    "poseY" : 0.5000001192092896,
    "poseTheta" : 0.0,
    "localTimestamp" : 1641916176380,
    "holdProduct" : false,
    "taskId" : -1,
    "oprsStack" : null
  }, {
    "beaconSignalId" : 84,
    "seq" : 6,
    "teamColor" : "CYAN",
    "timeNanoSeconds" : 1641916180057629313,
    "robotId" : "2",
    "robotName" : "R_2: Grips2",
    "teamName" : "Grips",
    "poseX" : 5.500000953674316,
    "poseY" : 0.4999997615814209,
    "poseTheta" : 0.0,
    "localTimestamp" : 1641916180194,
    "holdProduct" : false,
    "taskId" : -1,
    "oprsStack" : null
  }, {
    "beaconSignalId" : 80,
    "seq" : 6,
    "teamColor" : "CYAN",
    "timeNanoSeconds" : 1641916177846563101,
    "robotId" : "3",
    "robotName" : "R_3: Grips3",
    "teamName" : "Grips",
    "poseX" : 6.500000953674316,
    "poseY" : 0.4999997317790985,
    "poseTheta" : 0.0,
    "localTimestamp" : 1641916178009,
    "holdProduct" : false,
    "taskId" : -1,
    "oprsStack" : null
  } ],
  "explorationZones" : [ {
    "zone_id" : null,
    "zoneName" : "M_Z11",
    "teamColor" : null,
    "occupied" : "UNKNOWN",
    "zoneCenter" : {
      "x" : -0.5,
      "y" : 0.5
    },
    "zonePrefix" : "M",
    "heightIDX" : 1,
    "widthIDX" : 1,
    "zoneNumber" : 11,
    "observations" : [ ],
    "explorationState" : "UNEXPLORED",
    "zoneState" : "VALID",
    "machine" : null,
    "zoneOccupiedState" : "FREE"
  }, {
    "zone_id" : null,
    "zoneName" : "C_Z11",
    "teamColor" : null,
    "occupied" : "UNKNOWN",
    "zoneCenter" : {
      "x" : 0.5,
      "y" : 0.5
    },
    "zonePrefix" : "C",
    "heightIDX" : 1,
    "widthIDX" : 1,
    "zoneNumber" : 11,
    "observations" : [ ],
    "explorationState" : "UNEXPLORED",
    "zoneState" : "VALID",
    "machine" : null,
    "zoneOccupiedState" : "FREE"
  }, {
    "zone_id" : null,
    "zoneName" : "M_Z12",
    "teamColor" : null,
    "occupied" : "UNKNOWN",
    "zoneCenter" : {
      "x" : -0.5,
      "y" : 1.5
    },
    "zonePrefix" : "M",
    "heightIDX" : 2,
    "widthIDX" : 1,
    "zoneNumber" : 12,
    "observations" : [ ],
    "explorationState" : "UNEXPLORED",
    "zoneState" : "VALID",
    "machine" : "M-DS",
    "zoneOccupiedState" : "MACHINE"
  }, {
    "zone_id" : null,
    "zoneName" : "C_Z12",
    "teamColor" : null,
    "occupied" : "UNKNOWN",
    "zoneCenter" : {
      "x" : 0.5,
      "y" : 1.5
    },
    "zonePrefix" : "C",
    "heightIDX" : 2,
    "widthIDX" : 1,
    "zoneNumber" : 12,
    "observations" : [ ],
    "explorationState" : "UNEXPLORED",
    "zoneState" : "VALID",
    "machine" : "C-DS",
    "zoneOccupiedState" : "MACHINE"
  }, {
    "zone_id" : null,
    "zoneName" : "M_Z13",
    "teamColor" : null,
    "occupied" : "UNKNOWN",
    "zoneCenter" : {
      "x" : -0.5,
      "y" : 2.5
    },
    "zonePrefix" : "M",
    "heightIDX" : 3,
    "widthIDX" : 1,
    "zoneNumber" : 13,
    "observations" : [ ],
    "explorationState" : "UNEXPLORED",
    "zoneState" : "VALID",
    "machine" : null,
    "zoneOccupiedState" : "FREE"
  }, {
    "zone_id" : null,
    "zoneName" : "C_Z13",
    "teamColor" : null,
    "occupied" : "UNKNOWN",
    "zoneCenter" : {
      "x" : 0.5,
      "y" : 2.5
    },
    "zonePrefix" : "C",
    "heightIDX" : 3,
    "widthIDX" : 1,
    "zoneNumber" : 13,
    "observations" : [ ],
    "explorationState" : "UNEXPLORED",
    "zoneState" : "VALID",
    "machine" : null,
    "zoneOccupiedState" : "FREE"
  }, {
    "zone_id" : null,
    "zoneName" : "M_Z14",
    "teamColor" : null,
    "occupied" : "UNKNOWN",
    "zoneCenter" : {
      "x" : -0.5,
      "y" : 3.5
    },
    "zonePrefix" : "M",
    "heightIDX" : 4,
    "widthIDX" : 1,
    "zoneNumber" : 14,
    "observations" : [ ],
    "explorationState" : "UNEXPLORED",
    "zoneState" : "VALID",
    "machine" : null,
    "zoneOccupiedState" : "FREE"
  }, {
    "zone_id" : null,
    "zoneName" : "C_Z14",
    "teamColor" : null,
    "occupied" : "UNKNOWN",
    "zoneCenter" : {
      "x" : 0.5,
      "y" : 3.5
    },
    "zonePrefix" : "C",
    "heightIDX" : 4,
    "widthIDX" : 1,
    "zoneNumber" : 14,
    "observations" : [ ],
    "explorationState" : "UNEXPLORED",
    "zoneState" : "VALID",
    "machine" : null,
    "zoneOccupiedState" : "FREE"
  }, {
    "zone_id" : null,
    "zoneName" : "M_Z15",
    "teamColor" : null,
    "occupied" : "UNKNOWN",
    "zoneCenter" : {
      "x" : -0.5,
      "y" : 4.5
    },
    "zonePrefix" : "M",
    "heightIDX" : 5,
    "widthIDX" : 1,
    "zoneNumber" : 15,
    "observations" : [ ],
    "explorationState" : "UNEXPLORED",
    "zoneState" : "VALID",
    "machine" : null,
    "zoneOccupiedState" : "FREE"
  }, {
    "zone_id" : null,
    "zoneName" : "C_Z15",
    "teamColor" : null,
    "occupied" : "UNKNOWN",
    "zoneCenter" : {
      "x" : 0.5,
      "y" : 4.5
    },
    "zonePrefix" : "C",
    "heightIDX" : 5,
    "widthIDX" : 1,
    "zoneNumber" : 15,
    "observations" : [ ],
    "explorationState" : "UNEXPLORED",
    "zoneState" : "VALID",
    "machine" : null,
    "zoneOccupiedState" : "FREE"
  }, {
    "zone_id" : null,
    "zoneName" : "M_Z16",
    "teamColor" : null,
    "occupied" : "UNKNOWN",
    "zoneCenter" : {
      "x" : -0.5,
      "y" : 5.5
    },
    "zonePrefix" : "M",
    "heightIDX" : 6,
    "widthIDX" : 1,
    "zoneNumber" : 16,
    "observations" : [ ],
    "explorationState" : "UNEXPLORED",
    "zoneState" : "VALID",
    "machine" : null,
    "zoneOccupiedState" : "FREE"
  }, {
    "zone_id" : null,
    "zoneName" : "C_Z16",
    "teamColor" : null,
    "occupied" : "UNKNOWN",
    "zoneCenter" : {
      "x" : 0.5,
      "y" : 5.5
    },
    "zonePrefix" : "C",
    "heightIDX" : 6,
    "widthIDX" : 1,
    "zoneNumber" : 16,
    "observations" : [ ],
    "explorationState" : "UNEXPLORED",
    "zoneState" : "VALID",
    "machine" : null,
    "zoneOccupiedState" : "FREE"
  }, {
    "zone_id" : null,
    "zoneName" : "M_Z17",
    "teamColor" : null,
    "occupied" : "UNKNOWN",
    "zoneCenter" : {
      "x" : -0.5,
      "y" : 6.5
    },
    "zonePrefix" : "M",
    "heightIDX" : 7,
    "widthIDX" : 1,
    "zoneNumber" : 17,
    "observations" : [ ],
    "explorationState" : "UNEXPLORED",
    "zoneState" : "VALID",
    "machine" : null,
    "zoneOccupiedState" : "FREE"
  }, {
    "zone_id" : null,
    "zoneName" : "C_Z17",
    "teamColor" : null,
    "occupied" : "UNKNOWN",
    "zoneCenter" : {
      "x" : 0.5,
      "y" : 6.5
    },
    "zonePrefix" : "C",
    "heightIDX" : 7,
    "widthIDX" : 1,
    "zoneNumber" : 17,
    "observations" : [ ],
    "explorationState" : "UNEXPLORED",
    "zoneState" : "VALID",
    "machine" : null,
    "zoneOccupiedState" : "FREE"
  }, {
    "zone_id" : null,
    "zoneName" : "M_Z18",
    "teamColor" : null,
    "occupied" : "UNKNOWN",
    "zoneCenter" : {
      "x" : -0.5,
      "y" : 7.5
    },
    "zonePrefix" : "M",
    "heightIDX" : 8,
    "widthIDX" : 1,
    "zoneNumber" : 18,
    "observations" : [ ],
    "explorationState" : "UNEXPLORED",
    "zoneState" : "VALID",
    "machine" : null,
    "zoneOccupiedState" : "FREE"
  }, {
    "zone_id" : null,
    "zoneName" : "C_Z18",
    "teamColor" : null,
    "occupied" : "UNKNOWN",
    "zoneCenter" : {
      "x" : 0.5,
      "y" : 7.5
    },
    "zonePrefix" : "C",
    "heightIDX" : 8,
    "widthIDX" : 1,
    "zoneNumber" : 18,
    "observations" : [ ],
    "explorationState" : "UNEXPLORED",
    "zoneState" : "VALID",
    "machine" : null,
    "zoneOccupiedState" : "FREE"
  }, {
    "zone_id" : null,
    "zoneName" : "M_Z21",
    "teamColor" : null,
    "occupied" : "UNKNOWN",
    "zoneCenter" : {
      "x" : -1.5,
      "y" : 0.5
    },
    "zonePrefix" : "M",
    "heightIDX" : 1,
    "widthIDX" : 2,
    "zoneNumber" : 21,
    "observations" : [ ],
    "explorationState" : "UNEXPLORED",
    "zoneState" : "INSERTION",
    "machine" : null,
    "zoneOccupiedState" : "FREE"
  }, {
    "zone_id" : null,
    "zoneName" : "C_Z21",
    "teamColor" : null,
    "occupied" : "UNKNOWN",
    "zoneCenter" : {
      "x" : 1.5,
      "y" : 0.5
    },
    "zonePrefix" : "C",
    "heightIDX" : 1,
    "widthIDX" : 2,
    "zoneNumber" : 21,
    "observations" : [ ],
    "explorationState" : "UNEXPLORED",
    "zoneState" : "INSERTION",
    "machine" : null,
    "zoneOccupiedState" : "FREE"
  }, {
    "zone_id" : null,
    "zoneName" : "M_Z22",
    "teamColor" : null,
    "occupied" : "UNKNOWN",
    "zoneCenter" : {
      "x" : -1.5,
      "y" : 1.5
    },
    "zonePrefix" : "M",
    "heightIDX" : 2,
    "widthIDX" : 2,
    "zoneNumber" : 22,
    "observations" : [ ],
    "explorationState" : "UNEXPLORED",
    "zoneState" : "VALID",
    "machine" : null,
    "zoneOccupiedState" : "BLOCKED"
  }, {
    "zone_id" : null,
    "zoneName" : "C_Z22",
    "teamColor" : null,
    "occupied" : "UNKNOWN",
    "zoneCenter" : {
      "x" : 1.5,
      "y" : 1.5
    },
    "zonePrefix" : "C",
    "heightIDX" : 2,
    "widthIDX" : 2,
    "zoneNumber" : 22,
    "observations" : [ ],
    "explorationState" : "UNEXPLORED",
    "zoneState" : "VALID",
    "machine" : null,
    "zoneOccupiedState" : "BLOCKED"
  }, {
    "zone_id" : null,
    "zoneName" : "M_Z23",
    "teamColor" : null,
    "occupied" : "UNKNOWN",
    "zoneCenter" : {
      "x" : -1.5,
      "y" : 2.5
    },
    "zonePrefix" : "M",
    "heightIDX" : 3,
    "widthIDX" : 2,
    "zoneNumber" : 23,
    "observations" : [ ],
    "explorationState" : "UNEXPLORED",
    "zoneState" : "VALID",
    "machine" : null,
    "zoneOccupiedState" : "FREE"
  }, {
    "zone_id" : null,
    "zoneName" : "C_Z23",
    "teamColor" : null,
    "occupied" : "UNKNOWN",
    "zoneCenter" : {
      "x" : 1.5,
      "y" : 2.5
    },
    "zonePrefix" : "C",
    "heightIDX" : 3,
    "widthIDX" : 2,
    "zoneNumber" : 23,
    "observations" : [ ],
    "explorationState" : "UNEXPLORED",
    "zoneState" : "VALID",
    "machine" : null,
    "zoneOccupiedState" : "FREE"
  }, {
    "zone_id" : null,
    "zoneName" : "M_Z24",
    "teamColor" : null,
    "occupied" : "UNKNOWN",
    "zoneCenter" : {
      "x" : -1.5,
      "y" : 3.5
    },
    "zonePrefix" : "M",
    "heightIDX" : 4,
    "widthIDX" : 2,
    "zoneNumber" : 24,
    "observations" : [ ],
    "explorationState" : "UNEXPLORED",
    "zoneState" : "VALID",
    "machine" : null,
    "zoneOccupiedState" : "FREE"
  }, {
    "zone_id" : null,
    "zoneName" : "C_Z24",
    "teamColor" : null,
    "occupied" : "UNKNOWN",
    "zoneCenter" : {
      "x" : 1.5,
      "y" : 3.5
    },
    "zonePrefix" : "C",
    "heightIDX" : 4,
    "widthIDX" : 2,
    "zoneNumber" : 24,
    "observations" : [ ],
    "explorationState" : "UNEXPLORED",
    "zoneState" : "VALID",
    "machine" : null,
    "zoneOccupiedState" : "FREE"
  }, {
    "zone_id" : null,
    "zoneName" : "M_Z25",
    "teamColor" : null,
    "occupied" : "UNKNOWN",
    "zoneCenter" : {
      "x" : -1.5,
      "y" : 4.5
    },
    "zonePrefix" : "M",
    "heightIDX" : 5,
    "widthIDX" : 2,
    "zoneNumber" : 25,
    "observations" : [ ],
    "explorationState" : "UNEXPLORED",
    "zoneState" : "VALID",
    "machine" : null,
    "zoneOccupiedState" : "FREE"
  }, {
    "zone_id" : null,
    "zoneName" : "C_Z25",
    "teamColor" : null,
    "occupied" : "UNKNOWN",
    "zoneCenter" : {
      "x" : 1.5,
      "y" : 4.5
    },
    "zonePrefix" : "C",
    "heightIDX" : 5,
    "widthIDX" : 2,
    "zoneNumber" : 25,
    "observations" : [ ],
    "explorationState" : "UNEXPLORED",
    "zoneState" : "VALID",
    "machine" : null,
    "zoneOccupiedState" : "FREE"
  }, {
    "zone_id" : null,
    "zoneName" : "M_Z26",
    "teamColor" : null,
    "occupied" : "UNKNOWN",
    "zoneCenter" : {
      "x" : -1.5,
      "y" : 5.5
    },
    "zonePrefix" : "M",
    "heightIDX" : 6,
    "widthIDX" : 2,
    "zoneNumber" : 26,
    "observations" : [ ],
    "explorationState" : "UNEXPLORED",
    "zoneState" : "VALID",
    "machine" : null,
    "zoneOccupiedState" : "BLOCKED"
  }, {
    "zone_id" : null,
    "zoneName" : "C_Z26",
    "teamColor" : null,
    "occupied" : "UNKNOWN",
    "zoneCenter" : {
      "x" : 1.5,
      "y" : 5.5
    },
    "zonePrefix" : "C",
    "heightIDX" : 6,
    "widthIDX" : 2,
    "zoneNumber" : 26,
    "observations" : [ ],
    "explorationState" : "UNEXPLORED",
    "zoneState" : "VALID",
    "machine" : null,
    "zoneOccupiedState" : "BLOCKED"
  }, {
    "zone_id" : null,
    "zoneName" : "M_Z27",
    "teamColor" : null,
    "occupied" : "UNKNOWN",
    "zoneCenter" : {
      "x" : -1.5,
      "y" : 6.5
    },
    "zonePrefix" : "M",
    "heightIDX" : 7,
    "widthIDX" : 2,
    "zoneNumber" : 27,
    "observations" : [ ],
    "explorationState" : "UNEXPLORED",
    "zoneState" : "VALID",
    "machine" : "M-RS2",
    "zoneOccupiedState" : "MACHINE"
  }, {
    "zone_id" : null,
    "zoneName" : "C_Z27",
    "teamColor" : null,
    "occupied" : "UNKNOWN",
    "zoneCenter" : {
      "x" : 1.5,
      "y" : 6.5
    },
    "zonePrefix" : "C",
    "heightIDX" : 7,
    "widthIDX" : 2,
    "zoneNumber" : 27,
    "observations" : [ ],
    "explorationState" : "UNEXPLORED",
    "zoneState" : "VALID",
    "machine" : "C-RS2",
    "zoneOccupiedState" : "MACHINE"
  }, {
    "zone_id" : null,
    "zoneName" : "M_Z28",
    "teamColor" : null,
    "occupied" : "UNKNOWN",
    "zoneCenter" : {
      "x" : -1.5,
      "y" : 7.5
    },
    "zonePrefix" : "M",
    "heightIDX" : 8,
    "widthIDX" : 2,
    "zoneNumber" : 28,
    "observations" : [ ],
    "explorationState" : "UNEXPLORED",
    "zoneState" : "VALID",
    "machine" : null,
    "zoneOccupiedState" : "BLOCKED"
  }, {
    "zone_id" : null,
    "zoneName" : "C_Z28",
    "teamColor" : null,
    "occupied" : "UNKNOWN",
    "zoneCenter" : {
      "x" : 1.5,
      "y" : 7.5
    },
    "zonePrefix" : "C",
    "heightIDX" : 8,
    "widthIDX" : 2,
    "zoneNumber" : 28,
    "observations" : [ ],
    "explorationState" : "UNEXPLORED",
    "zoneState" : "VALID",
    "machine" : null,
    "zoneOccupiedState" : "BLOCKED"
  }, {
    "zone_id" : null,
    "zoneName" : "M_Z31",
    "teamColor" : null,
    "occupied" : "UNKNOWN",
    "zoneCenter" : {
      "x" : -2.5,
      "y" : 0.5
    },
    "zonePrefix" : "M",
    "heightIDX" : 1,
    "widthIDX" : 3,
    "zoneNumber" : 31,
    "observations" : [ ],
    "explorationState" : "UNEXPLORED",
    "zoneState" : "INSERTION",
    "machine" : null,
    "zoneOccupiedState" : "FREE"
  }, {
    "zone_id" : null,
    "zoneName" : "C_Z31",
    "teamColor" : null,
    "occupied" : "UNKNOWN",
    "zoneCenter" : {
      "x" : 2.5,
      "y" : 0.5
    },
    "zonePrefix" : "C",
    "heightIDX" : 1,
    "widthIDX" : 3,
    "zoneNumber" : 31,
    "observations" : [ ],
    "explorationState" : "UNEXPLORED",
    "zoneState" : "INSERTION",
    "machine" : null,
    "zoneOccupiedState" : "FREE"
  }, {
    "zone_id" : null,
    "zoneName" : "M_Z32",
    "teamColor" : null,
    "occupied" : "UNKNOWN",
    "zoneCenter" : {
      "x" : -2.5,
      "y" : 1.5
    },
    "zonePrefix" : "M",
    "heightIDX" : 2,
    "widthIDX" : 3,
    "zoneNumber" : 32,
    "observations" : [ ],
    "explorationState" : "UNEXPLORED",
    "zoneState" : "VALID",
    "machine" : null,
    "zoneOccupiedState" : "FREE"
  }, {
    "zone_id" : null,
    "zoneName" : "C_Z32",
    "teamColor" : null,
    "occupied" : "UNKNOWN",
    "zoneCenter" : {
      "x" : 2.5,
      "y" : 1.5
    },
    "zonePrefix" : "C",
    "heightIDX" : 2,
    "widthIDX" : 3,
    "zoneNumber" : 32,
    "observations" : [ ],
    "explorationState" : "UNEXPLORED",
    "zoneState" : "VALID",
    "machine" : null,
    "zoneOccupiedState" : "FREE"
  }, {
    "zone_id" : null,
    "zoneName" : "M_Z33",
    "teamColor" : null,
    "occupied" : "UNKNOWN",
    "zoneCenter" : {
      "x" : -2.5,
      "y" : 2.5
    },
    "zonePrefix" : "M",
    "heightIDX" : 3,
    "widthIDX" : 3,
    "zoneNumber" : 33,
    "observations" : [ ],
    "explorationState" : "UNEXPLORED",
    "zoneState" : "VALID",
    "machine" : null,
    "zoneOccupiedState" : "FREE"
  }, {
    "zone_id" : null,
    "zoneName" : "C_Z33",
    "teamColor" : null,
    "occupied" : "UNKNOWN",
    "zoneCenter" : {
      "x" : 2.5,
      "y" : 2.5
    },
    "zonePrefix" : "C",
    "heightIDX" : 3,
    "widthIDX" : 3,
    "zoneNumber" : 33,
    "observations" : [ ],
    "explorationState" : "UNEXPLORED",
    "zoneState" : "VALID",
    "machine" : null,
    "zoneOccupiedState" : "FREE"
  }, {
    "zone_id" : null,
    "zoneName" : "M_Z34",
    "teamColor" : null,
    "occupied" : "UNKNOWN",
    "zoneCenter" : {
      "x" : -2.5,
      "y" : 3.5
    },
    "zonePrefix" : "M",
    "heightIDX" : 4,
    "widthIDX" : 3,
    "zoneNumber" : 34,
    "observations" : [ ],
    "explorationState" : "UNEXPLORED",
    "zoneState" : "VALID",
    "machine" : null,
    "zoneOccupiedState" : "FREE"
  }, {
    "zone_id" : null,
    "zoneName" : "C_Z34",
    "teamColor" : null,
    "occupied" : "UNKNOWN",
    "zoneCenter" : {
      "x" : 2.5,
      "y" : 3.5
    },
    "zonePrefix" : "C",
    "heightIDX" : 4,
    "widthIDX" : 3,
    "zoneNumber" : 34,
    "observations" : [ ],
    "explorationState" : "UNEXPLORED",
    "zoneState" : "VALID",
    "machine" : null,
    "zoneOccupiedState" : "FREE"
  }, {
    "zone_id" : null,
    "zoneName" : "M_Z35",
    "teamColor" : null,
    "occupied" : "UNKNOWN",
    "zoneCenter" : {
      "x" : -2.5,
      "y" : 4.5
    },
    "zonePrefix" : "M",
    "heightIDX" : 5,
    "widthIDX" : 3,
    "zoneNumber" : 35,
    "observations" : [ ],
    "explorationState" : "UNEXPLORED",
    "zoneState" : "VALID",
    "machine" : null,
    "zoneOccupiedState" : "FREE"
  }, {
    "zone_id" : null,
    "zoneName" : "C_Z35",
    "teamColor" : null,
    "occupied" : "UNKNOWN",
    "zoneCenter" : {
      "x" : 2.5,
      "y" : 4.5
    },
    "zonePrefix" : "C",
    "heightIDX" : 5,
    "widthIDX" : 3,
    "zoneNumber" : 35,
    "observations" : [ ],
    "explorationState" : "UNEXPLORED",
    "zoneState" : "VALID",
    "machine" : null,
    "zoneOccupiedState" : "FREE"
  }, {
    "zone_id" : null,
    "zoneName" : "M_Z36",
    "teamColor" : null,
    "occupied" : "UNKNOWN",
    "zoneCenter" : {
      "x" : -2.5,
      "y" : 5.5
    },
    "zonePrefix" : "M",
    "heightIDX" : 6,
    "widthIDX" : 3,
    "zoneNumber" : 36,
    "observations" : [ ],
    "explorationState" : "UNEXPLORED",
    "zoneState" : "VALID",
    "machine" : null,
    "zoneOccupiedState" : "FREE"
  }, {
    "zone_id" : null,
    "zoneName" : "C_Z36",
    "teamColor" : null,
    "occupied" : "UNKNOWN",
    "zoneCenter" : {
      "x" : 2.5,
      "y" : 5.5
    },
    "zonePrefix" : "C",
    "heightIDX" : 6,
    "widthIDX" : 3,
    "zoneNumber" : 36,
    "observations" : [ ],
    "explorationState" : "UNEXPLORED",
    "zoneState" : "VALID",
    "machine" : null,
    "zoneOccupiedState" : "FREE"
  }, {
    "zone_id" : null,
    "zoneName" : "M_Z37",
    "teamColor" : null,
    "occupied" : "UNKNOWN",
    "zoneCenter" : {
      "x" : -2.5,
      "y" : 6.5
    },
    "zonePrefix" : "M",
    "heightIDX" : 7,
    "widthIDX" : 3,
    "zoneNumber" : 37,
    "observations" : [ ],
    "explorationState" : "UNEXPLORED",
    "zoneState" : "VALID",
    "machine" : null,
    "zoneOccupiedState" : "FREE"
  }, {
    "zone_id" : null,
    "zoneName" : "C_Z37",
    "teamColor" : null,
    "occupied" : "UNKNOWN",
    "zoneCenter" : {
      "x" : 2.5,
      "y" : 6.5
    },
    "zonePrefix" : "C",
    "heightIDX" : 7,
    "widthIDX" : 3,
    "zoneNumber" : 37,
    "observations" : [ ],
    "explorationState" : "UNEXPLORED",
    "zoneState" : "VALID",
    "machine" : null,
    "zoneOccupiedState" : "FREE"
  }, {
    "zone_id" : null,
    "zoneName" : "M_Z38",
    "teamColor" : null,
    "occupied" : "UNKNOWN",
    "zoneCenter" : {
      "x" : -2.5,
      "y" : 7.5
    },
    "zonePrefix" : "M",
    "heightIDX" : 8,
    "widthIDX" : 3,
    "zoneNumber" : 38,
    "observations" : [ ],
    "explorationState" : "UNEXPLORED",
    "zoneState" : "VALID",
    "machine" : null,
    "zoneOccupiedState" : "FREE"
  }, {
    "zone_id" : null,
    "zoneName" : "C_Z38",
    "teamColor" : null,
    "occupied" : "UNKNOWN",
    "zoneCenter" : {
      "x" : 2.5,
      "y" : 7.5
    },
    "zonePrefix" : "C",
    "heightIDX" : 8,
    "widthIDX" : 3,
    "zoneNumber" : 38,
    "observations" : [ ],
    "explorationState" : "UNEXPLORED",
    "zoneState" : "VALID",
    "machine" : null,
    "zoneOccupiedState" : "FREE"
  }, {
    "zone_id" : null,
    "zoneName" : "M_Z41",
    "teamColor" : null,
    "occupied" : "UNKNOWN",
    "zoneCenter" : {
      "x" : -3.5,
      "y" : 0.5
    },
    "zonePrefix" : "M",
    "heightIDX" : 1,
    "widthIDX" : 4,
    "zoneNumber" : 41,
    "observations" : [ ],
    "explorationState" : "UNEXPLORED",
    "zoneState" : "INSERTION",
    "machine" : null,
    "zoneOccupiedState" : "FREE"
  }, {
    "zone_id" : null,
    "zoneName" : "C_Z41",
    "teamColor" : null,
    "occupied" : "UNKNOWN",
    "zoneCenter" : {
      "x" : 3.5,
      "y" : 0.5
    },
    "zonePrefix" : "C",
    "heightIDX" : 1,
    "widthIDX" : 4,
    "zoneNumber" : 41,
    "observations" : [ ],
    "explorationState" : "UNEXPLORED",
    "zoneState" : "INSERTION",
    "machine" : null,
    "zoneOccupiedState" : "FREE"
  }, {
    "zone_id" : null,
    "zoneName" : "M_Z42",
    "teamColor" : null,
    "occupied" : "UNKNOWN",
    "zoneCenter" : {
      "x" : -3.5,
      "y" : 1.5
    },
    "zonePrefix" : "M",
    "heightIDX" : 2,
    "widthIDX" : 4,
    "zoneNumber" : 42,
    "observations" : [ ],
    "explorationState" : "UNEXPLORED",
    "zoneState" : "VALID",
    "machine" : null,
    "zoneOccupiedState" : "FREE"
  }, {
    "zone_id" : null,
    "zoneName" : "C_Z42",
    "teamColor" : null,
    "occupied" : "UNKNOWN",
    "zoneCenter" : {
      "x" : 3.5,
      "y" : 1.5
    },
    "zonePrefix" : "C",
    "heightIDX" : 2,
    "widthIDX" : 4,
    "zoneNumber" : 42,
    "observations" : [ ],
    "explorationState" : "UNEXPLORED",
    "zoneState" : "VALID",
    "machine" : null,
    "zoneOccupiedState" : "FREE"
  }, {
    "zone_id" : null,
    "zoneName" : "M_Z43",
    "teamColor" : null,
    "occupied" : "UNKNOWN",
    "zoneCenter" : {
      "x" : -3.5,
      "y" : 2.5
    },
    "zonePrefix" : "M",
    "heightIDX" : 3,
    "widthIDX" : 4,
    "zoneNumber" : 43,
    "observations" : [ ],
    "explorationState" : "UNEXPLORED",
    "zoneState" : "VALID",
    "machine" : null,
    "zoneOccupiedState" : "BLOCKED"
  }, {
    "zone_id" : null,
    "zoneName" : "C_Z43",
    "teamColor" : null,
    "occupied" : "UNKNOWN",
    "zoneCenter" : {
      "x" : 3.5,
      "y" : 2.5
    },
    "zonePrefix" : "C",
    "heightIDX" : 3,
    "widthIDX" : 4,
    "zoneNumber" : 43,
    "observations" : [ ],
    "explorationState" : "UNEXPLORED",
    "zoneState" : "VALID",
    "machine" : null,
    "zoneOccupiedState" : "BLOCKED"
  }, {
    "zone_id" : null,
    "zoneName" : "M_Z44",
    "teamColor" : null,
    "occupied" : "UNKNOWN",
    "zoneCenter" : {
      "x" : -3.5,
      "y" : 3.5
    },
    "zonePrefix" : "M",
    "heightIDX" : 4,
    "widthIDX" : 4,
    "zoneNumber" : 44,
    "observations" : [ ],
    "explorationState" : "UNEXPLORED",
    "zoneState" : "VALID",
    "machine" : null,
    "zoneOccupiedState" : "FREE"
  }, {
    "zone_id" : null,
    "zoneName" : "C_Z44",
    "teamColor" : null,
    "occupied" : "UNKNOWN",
    "zoneCenter" : {
      "x" : 3.5,
      "y" : 3.5
    },
    "zonePrefix" : "C",
    "heightIDX" : 4,
    "widthIDX" : 4,
    "zoneNumber" : 44,
    "observations" : [ ],
    "explorationState" : "UNEXPLORED",
    "zoneState" : "VALID",
    "machine" : null,
    "zoneOccupiedState" : "FREE"
  }, {
    "zone_id" : null,
    "zoneName" : "M_Z45",
    "teamColor" : null,
    "occupied" : "UNKNOWN",
    "zoneCenter" : {
      "x" : -3.5,
      "y" : 4.5
    },
    "zonePrefix" : "M",
    "heightIDX" : 5,
    "widthIDX" : 4,
    "zoneNumber" : 45,
    "observations" : [ ],
    "explorationState" : "UNEXPLORED",
    "zoneState" : "VALID",
    "machine" : null,
    "zoneOccupiedState" : "FREE"
  }, {
    "zone_id" : null,
    "zoneName" : "C_Z45",
    "teamColor" : null,
    "occupied" : "UNKNOWN",
    "zoneCenter" : {
      "x" : 3.5,
      "y" : 4.5
    },
    "zonePrefix" : "C",
    "heightIDX" : 5,
    "widthIDX" : 4,
    "zoneNumber" : 45,
    "observations" : [ ],
    "explorationState" : "UNEXPLORED",
    "zoneState" : "VALID",
    "machine" : null,
    "zoneOccupiedState" : "FREE"
  }, {
    "zone_id" : null,
    "zoneName" : "M_Z46",
    "teamColor" : null,
    "occupied" : "UNKNOWN",
    "zoneCenter" : {
      "x" : -3.5,
      "y" : 5.5
    },
    "zonePrefix" : "M",
    "heightIDX" : 6,
    "widthIDX" : 4,
    "zoneNumber" : 46,
    "observations" : [ ],
    "explorationState" : "UNEXPLORED",
    "zoneState" : "VALID",
    "machine" : null,
    "zoneOccupiedState" : "FREE"
  }, {
    "zone_id" : null,
    "zoneName" : "C_Z46",
    "teamColor" : null,
    "occupied" : "UNKNOWN",
    "zoneCenter" : {
      "x" : 3.5,
      "y" : 5.5
    },
    "zonePrefix" : "C",
    "heightIDX" : 6,
    "widthIDX" : 4,
    "zoneNumber" : 46,
    "observations" : [ ],
    "explorationState" : "UNEXPLORED",
    "zoneState" : "VALID",
    "machine" : null,
    "zoneOccupiedState" : "FREE"
  }, {
    "zone_id" : null,
    "zoneName" : "M_Z47",
    "teamColor" : null,
    "occupied" : "UNKNOWN",
    "zoneCenter" : {
      "x" : -3.5,
      "y" : 6.5
    },
    "zonePrefix" : "M",
    "heightIDX" : 7,
    "widthIDX" : 4,
    "zoneNumber" : 47,
    "observations" : [ ],
    "explorationState" : "UNEXPLORED",
    "zoneState" : "VALID",
    "machine" : null,
    "zoneOccupiedState" : "FREE"
  }, {
    "zone_id" : null,
    "zoneName" : "C_Z47",
    "teamColor" : null,
    "occupied" : "UNKNOWN",
    "zoneCenter" : {
      "x" : 3.5,
      "y" : 6.5
    },
    "zonePrefix" : "C",
    "heightIDX" : 7,
    "widthIDX" : 4,
    "zoneNumber" : 47,
    "observations" : [ ],
    "explorationState" : "UNEXPLORED",
    "zoneState" : "VALID",
    "machine" : null,
    "zoneOccupiedState" : "FREE"
  }, {
    "zone_id" : null,
    "zoneName" : "M_Z48",
    "teamColor" : null,
    "occupied" : "UNKNOWN",
    "zoneCenter" : {
      "x" : -3.5,
      "y" : 7.5
    },
    "zonePrefix" : "M",
    "heightIDX" : 8,
    "widthIDX" : 4,
    "zoneNumber" : 48,
    "observations" : [ ],
    "explorationState" : "UNEXPLORED",
    "zoneState" : "VALID",
    "machine" : null,
    "zoneOccupiedState" : "FREE"
  }, {
    "zone_id" : null,
    "zoneName" : "C_Z48",
    "teamColor" : null,
    "occupied" : "UNKNOWN",
    "zoneCenter" : {
      "x" : 3.5,
      "y" : 7.5
    },
    "zonePrefix" : "C",
    "heightIDX" : 8,
    "widthIDX" : 4,
    "zoneNumber" : 48,
    "observations" : [ ],
    "explorationState" : "UNEXPLORED",
    "zoneState" : "VALID",
    "machine" : null,
    "zoneOccupiedState" : "FREE"
  }, {
    "zone_id" : null,
    "zoneName" : "M_Z53",
    "teamColor" : null,
    "occupied" : "UNKNOWN",
    "zoneCenter" : {
      "x" : -4.5,
      "y" : 2.5
    },
    "zonePrefix" : "M",
    "heightIDX" : 3,
    "widthIDX" : 5,
    "zoneNumber" : 53,
    "observations" : [ ],
    "explorationState" : "UNEXPLORED",
    "zoneState" : "VALID",
    "machine" : "C-CS2",
    "zoneOccupiedState" : "MACHINE"
  }, {
    "zone_id" : null,
    "zoneName" : "C_Z53",
    "teamColor" : null,
    "occupied" : "UNKNOWN",
    "zoneCenter" : {
      "x" : 4.5,
      "y" : 2.5
    },
    "zonePrefix" : "C",
    "heightIDX" : 3,
    "widthIDX" : 5,
    "zoneNumber" : 53,
    "observations" : [ ],
    "explorationState" : "UNEXPLORED",
    "zoneState" : "VALID",
    "machine" : "M-CS2",
    "zoneOccupiedState" : "MACHINE"
  }, {
    "zone_id" : null,
    "zoneName" : "M_Z54",
    "teamColor" : null,
    "occupied" : "UNKNOWN",
    "zoneCenter" : {
      "x" : -4.5,
      "y" : 3.5
    },
    "zonePrefix" : "M",
    "heightIDX" : 4,
    "widthIDX" : 5,
    "zoneNumber" : 54,
    "observations" : [ ],
    "explorationState" : "UNEXPLORED",
    "zoneState" : "VALID",
    "machine" : null,
    "zoneOccupiedState" : "FREE"
  }, {
    "zone_id" : null,
    "zoneName" : "C_Z54",
    "teamColor" : null,
    "occupied" : "UNKNOWN",
    "zoneCenter" : {
      "x" : 4.5,
      "y" : 3.5
    },
    "zonePrefix" : "C",
    "heightIDX" : 4,
    "widthIDX" : 5,
    "zoneNumber" : 54,
    "observations" : [ ],
    "explorationState" : "UNEXPLORED",
    "zoneState" : "VALID",
    "machine" : null,
    "zoneOccupiedState" : "FREE"
  }, {
    "zone_id" : null,
    "zoneName" : "M_Z55",
    "teamColor" : null,
    "occupied" : "UNKNOWN",
    "zoneCenter" : {
      "x" : -4.5,
      "y" : 4.5
    },
    "zonePrefix" : "M",
    "heightIDX" : 5,
    "widthIDX" : 5,
    "zoneNumber" : 55,
    "observations" : [ ],
    "explorationState" : "UNEXPLORED",
    "zoneState" : "VALID",
    "machine" : null,
    "zoneOccupiedState" : "FREE"
  }, {
    "zone_id" : null,
    "zoneName" : "C_Z55",
    "teamColor" : null,
    "occupied" : "UNKNOWN",
    "zoneCenter" : {
      "x" : 4.5,
      "y" : 4.5
    },
    "zonePrefix" : "C",
    "heightIDX" : 5,
    "widthIDX" : 5,
    "zoneNumber" : 55,
    "observations" : [ ],
    "explorationState" : "UNEXPLORED",
    "zoneState" : "VALID",
    "machine" : null,
    "zoneOccupiedState" : "FREE"
  }, {
    "zone_id" : null,
    "zoneName" : "M_Z56",
    "teamColor" : null,
    "occupied" : "UNKNOWN",
    "zoneCenter" : {
      "x" : -4.5,
      "y" : 5.5
    },
    "zonePrefix" : "M",
    "heightIDX" : 6,
    "widthIDX" : 5,
    "zoneNumber" : 56,
    "observations" : [ ],
    "explorationState" : "UNEXPLORED",
    "zoneState" : "VALID",
    "machine" : null,
    "zoneOccupiedState" : "FREE"
  }, {
    "zone_id" : null,
    "zoneName" : "C_Z56",
    "teamColor" : null,
    "occupied" : "UNKNOWN",
    "zoneCenter" : {
      "x" : 4.5,
      "y" : 5.5
    },
    "zonePrefix" : "C",
    "heightIDX" : 6,
    "widthIDX" : 5,
    "zoneNumber" : 56,
    "observations" : [ ],
    "explorationState" : "UNEXPLORED",
    "zoneState" : "VALID",
    "machine" : null,
    "zoneOccupiedState" : "FREE"
  }, {
    "zone_id" : null,
    "zoneName" : "M_Z57",
    "teamColor" : null,
    "occupied" : "UNKNOWN",
    "zoneCenter" : {
      "x" : -4.5,
      "y" : 6.5
    },
    "zonePrefix" : "M",
    "heightIDX" : 7,
    "widthIDX" : 5,
    "zoneNumber" : 57,
    "observations" : [ ],
    "explorationState" : "UNEXPLORED",
    "zoneState" : "VALID",
    "machine" : null,
    "zoneOccupiedState" : "BLOCKED"
  }, {
    "zone_id" : null,
    "zoneName" : "C_Z57",
    "teamColor" : null,
    "occupied" : "UNKNOWN",
    "zoneCenter" : {
      "x" : 4.5,
      "y" : 6.5
    },
    "zonePrefix" : "C",
    "heightIDX" : 7,
    "widthIDX" : 5,
    "zoneNumber" : 57,
    "observations" : [ ],
    "explorationState" : "UNEXPLORED",
    "zoneState" : "VALID",
    "machine" : null,
    "zoneOccupiedState" : "BLOCKED"
  }, {
    "zone_id" : null,
    "zoneName" : "M_Z58",
    "teamColor" : null,
    "occupied" : "UNKNOWN",
    "zoneCenter" : {
      "x" : -4.5,
      "y" : 7.5
    },
    "zonePrefix" : "M",
    "heightIDX" : 8,
    "widthIDX" : 5,
    "zoneNumber" : 58,
    "observations" : [ ],
    "explorationState" : "UNEXPLORED",
    "zoneState" : "VALID",
    "machine" : null,
    "zoneOccupiedState" : "BLOCKED"
  }, {
    "zone_id" : null,
    "zoneName" : "C_Z58",
    "teamColor" : null,
    "occupied" : "UNKNOWN",
    "zoneCenter" : {
      "x" : 4.5,
      "y" : 7.5
    },
    "zonePrefix" : "C",
    "heightIDX" : 8,
    "widthIDX" : 5,
    "zoneNumber" : 58,
    "observations" : [ ],
    "explorationState" : "UNEXPLORED",
    "zoneState" : "VALID",
    "machine" : null,
    "zoneOccupiedState" : "BLOCKED"
  }, {
    "zone_id" : null,
    "zoneName" : "M_Z62",
    "teamColor" : null,
    "occupied" : "UNKNOWN",
    "zoneCenter" : {
      "x" : -5.5,
      "y" : 1.5
    },
    "zonePrefix" : "M",
    "heightIDX" : 2,
    "widthIDX" : 6,
    "zoneNumber" : 62,
    "observations" : [ ],
    "explorationState" : "UNEXPLORED",
    "zoneState" : "VALID",
    "machine" : "M-BS",
    "zoneOccupiedState" : "MACHINE"
  }, {
    "zone_id" : null,
    "zoneName" : "C_Z62",
    "teamColor" : null,
    "occupied" : "UNKNOWN",
    "zoneCenter" : {
      "x" : 5.5,
      "y" : 1.5
    },
    "zonePrefix" : "C",
    "heightIDX" : 2,
    "widthIDX" : 6,
    "zoneNumber" : 62,
    "observations" : [ ],
    "explorationState" : "UNEXPLORED",
    "zoneState" : "VALID",
    "machine" : "C-BS",
    "zoneOccupiedState" : "MACHINE"
  }, {
    "zone_id" : null,
    "zoneName" : "M_Z63",
    "teamColor" : null,
    "occupied" : "UNKNOWN",
    "zoneCenter" : {
      "x" : -5.5,
      "y" : 2.5
    },
    "zonePrefix" : "M",
    "heightIDX" : 3,
    "widthIDX" : 6,
    "zoneNumber" : 63,
    "observations" : [ ],
    "explorationState" : "UNEXPLORED",
    "zoneState" : "VALID",
    "machine" : null,
    "zoneOccupiedState" : "BLOCKED"
  }, {
    "zone_id" : null,
    "zoneName" : "C_Z63",
    "teamColor" : null,
    "occupied" : "UNKNOWN",
    "zoneCenter" : {
      "x" : 5.5,
      "y" : 2.5
    },
    "zonePrefix" : "C",
    "heightIDX" : 3,
    "widthIDX" : 6,
    "zoneNumber" : 63,
    "observations" : [ ],
    "explorationState" : "UNEXPLORED",
    "zoneState" : "VALID",
    "machine" : null,
    "zoneOccupiedState" : "BLOCKED"
  }, {
    "zone_id" : null,
    "zoneName" : "M_Z64",
    "teamColor" : null,
    "occupied" : "UNKNOWN",
    "zoneCenter" : {
      "x" : -5.5,
      "y" : 3.5
    },
    "zonePrefix" : "M",
    "heightIDX" : 4,
    "widthIDX" : 6,
    "zoneNumber" : 64,
    "observations" : [ ],
    "explorationState" : "UNEXPLORED",
    "zoneState" : "VALID",
    "machine" : null,
    "zoneOccupiedState" : "FREE"
  }, {
    "zone_id" : null,
    "zoneName" : "C_Z64",
    "teamColor" : null,
    "occupied" : "UNKNOWN",
    "zoneCenter" : {
      "x" : 5.5,
      "y" : 3.5
    },
    "zonePrefix" : "C",
    "heightIDX" : 4,
    "widthIDX" : 6,
    "zoneNumber" : 64,
    "observations" : [ ],
    "explorationState" : "UNEXPLORED",
    "zoneState" : "VALID",
    "machine" : null,
    "zoneOccupiedState" : "FREE"
  }, {
    "zone_id" : null,
    "zoneName" : "M_Z65",
    "teamColor" : null,
    "occupied" : "UNKNOWN",
    "zoneCenter" : {
      "x" : -5.5,
      "y" : 4.5
    },
    "zonePrefix" : "M",
    "heightIDX" : 5,
    "widthIDX" : 6,
    "zoneNumber" : 65,
    "observations" : [ ],
    "explorationState" : "UNEXPLORED",
    "zoneState" : "VALID",
    "machine" : null,
    "zoneOccupiedState" : "FREE"
  }, {
    "zone_id" : null,
    "zoneName" : "C_Z65",
    "teamColor" : null,
    "occupied" : "UNKNOWN",
    "zoneCenter" : {
      "x" : 5.5,
      "y" : 4.5
    },
    "zonePrefix" : "C",
    "heightIDX" : 5,
    "widthIDX" : 6,
    "zoneNumber" : 65,
    "observations" : [ ],
    "explorationState" : "UNEXPLORED",
    "zoneState" : "VALID",
    "machine" : null,
    "zoneOccupiedState" : "FREE"
  }, {
    "zone_id" : null,
    "zoneName" : "M_Z66",
    "teamColor" : null,
    "occupied" : "UNKNOWN",
    "zoneCenter" : {
      "x" : -5.5,
      "y" : 5.5
    },
    "zonePrefix" : "M",
    "heightIDX" : 6,
    "widthIDX" : 6,
    "zoneNumber" : 66,
    "observations" : [ ],
    "explorationState" : "UNEXPLORED",
    "zoneState" : "VALID",
    "machine" : null,
    "zoneOccupiedState" : "FREE"
  }, {
    "zone_id" : null,
    "zoneName" : "C_Z66",
    "teamColor" : null,
    "occupied" : "UNKNOWN",
    "zoneCenter" : {
      "x" : 5.5,
      "y" : 5.5
    },
    "zonePrefix" : "C",
    "heightIDX" : 6,
    "widthIDX" : 6,
    "zoneNumber" : 66,
    "observations" : [ ],
    "explorationState" : "UNEXPLORED",
    "zoneState" : "VALID",
    "machine" : null,
    "zoneOccupiedState" : "FREE"
  }, {
    "zone_id" : null,
    "zoneName" : "M_Z67",
    "teamColor" : null,
    "occupied" : "UNKNOWN",
    "zoneCenter" : {
      "x" : -5.5,
      "y" : 6.5
    },
    "zonePrefix" : "M",
    "heightIDX" : 7,
    "widthIDX" : 6,
    "zoneNumber" : 67,
    "observations" : [ ],
    "explorationState" : "UNEXPLORED",
    "zoneState" : "VALID",
    "machine" : "M-CS1",
    "zoneOccupiedState" : "MACHINE"
  }, {
    "zone_id" : null,
    "zoneName" : "C_Z67",
    "teamColor" : null,
    "occupied" : "UNKNOWN",
    "zoneCenter" : {
      "x" : 5.5,
      "y" : 6.5
    },
    "zonePrefix" : "C",
    "heightIDX" : 7,
    "widthIDX" : 6,
    "zoneNumber" : 67,
    "observations" : [ ],
    "explorationState" : "UNEXPLORED",
    "zoneState" : "VALID",
    "machine" : "C-CS1",
    "zoneOccupiedState" : "MACHINE"
  }, {
    "zone_id" : null,
    "zoneName" : "M_Z68",
    "teamColor" : null,
    "occupied" : "UNKNOWN",
    "zoneCenter" : {
      "x" : -5.5,
      "y" : 7.5
    },
    "zonePrefix" : "M",
    "heightIDX" : 8,
    "widthIDX" : 6,
    "zoneNumber" : 68,
    "observations" : [ ],
    "explorationState" : "UNEXPLORED",
    "zoneState" : "VALID",
    "machine" : "M-SS",
    "zoneOccupiedState" : "MACHINE"
  }, {
    "zone_id" : null,
    "zoneName" : "C_Z68",
    "teamColor" : null,
    "occupied" : "UNKNOWN",
    "zoneCenter" : {
      "x" : 5.5,
      "y" : 7.5
    },
    "zonePrefix" : "C",
    "heightIDX" : 8,
    "widthIDX" : 6,
    "zoneNumber" : 68,
    "observations" : [ ],
    "explorationState" : "UNEXPLORED",
    "zoneState" : "VALID",
    "machine" : "C-SS",
    "zoneOccupiedState" : "MACHINE"
  }, {
    "zone_id" : null,
    "zoneName" : "M_Z72",
    "teamColor" : null,
    "occupied" : "UNKNOWN",
    "zoneCenter" : {
      "x" : -6.5,
      "y" : 1.5
    },
    "zonePrefix" : "M",
    "heightIDX" : 2,
    "widthIDX" : 7,
    "zoneNumber" : 72,
    "observations" : [ ],
    "explorationState" : "UNEXPLORED",
    "zoneState" : "VALID",
    "machine" : null,
    "zoneOccupiedState" : "BLOCKED"
  }, {
    "zone_id" : null,
    "zoneName" : "C_Z72",
    "teamColor" : null,
    "occupied" : "UNKNOWN",
    "zoneCenter" : {
      "x" : 6.5,
      "y" : 1.5
    },
    "zonePrefix" : "C",
    "heightIDX" : 2,
    "widthIDX" : 7,
    "zoneNumber" : 72,
    "observations" : [ ],
    "explorationState" : "UNEXPLORED",
    "zoneState" : "VALID",
    "machine" : null,
    "zoneOccupiedState" : "BLOCKED"
  }, {
    "zone_id" : null,
    "zoneName" : "M_Z73",
    "teamColor" : null,
    "occupied" : "UNKNOWN",
    "zoneCenter" : {
      "x" : -6.5,
      "y" : 2.5
    },
    "zonePrefix" : "M",
    "heightIDX" : 3,
    "widthIDX" : 7,
    "zoneNumber" : 73,
    "observations" : [ ],
    "explorationState" : "UNEXPLORED",
    "zoneState" : "VALID",
    "machine" : null,
    "zoneOccupiedState" : "FREE"
  }, {
    "zone_id" : null,
    "zoneName" : "C_Z73",
    "teamColor" : null,
    "occupied" : "UNKNOWN",
    "zoneCenter" : {
      "x" : 6.5,
      "y" : 2.5
    },
    "zonePrefix" : "C",
    "heightIDX" : 3,
    "widthIDX" : 7,
    "zoneNumber" : 73,
    "observations" : [ ],
    "explorationState" : "UNEXPLORED",
    "zoneState" : "VALID",
    "machine" : null,
    "zoneOccupiedState" : "FREE"
  }, {
    "zone_id" : null,
    "zoneName" : "M_Z74",
    "teamColor" : null,
    "occupied" : "UNKNOWN",
    "zoneCenter" : {
      "x" : -6.5,
      "y" : 3.5
    },
    "zonePrefix" : "M",
    "heightIDX" : 4,
    "widthIDX" : 7,
    "zoneNumber" : 74,
    "observations" : [ ],
    "explorationState" : "UNEXPLORED",
    "zoneState" : "VALID",
    "machine" : null,
    "zoneOccupiedState" : "BLOCKED"
  }, {
    "zone_id" : null,
    "zoneName" : "C_Z74",
    "teamColor" : null,
    "occupied" : "UNKNOWN",
    "zoneCenter" : {
      "x" : 6.5,
      "y" : 3.5
    },
    "zonePrefix" : "C",
    "heightIDX" : 4,
    "widthIDX" : 7,
    "zoneNumber" : 74,
    "observations" : [ ],
    "explorationState" : "UNEXPLORED",
    "zoneState" : "VALID",
    "machine" : null,
    "zoneOccupiedState" : "BLOCKED"
  }, {
    "zone_id" : null,
    "zoneName" : "M_Z75",
    "teamColor" : null,
    "occupied" : "UNKNOWN",
    "zoneCenter" : {
      "x" : -6.5,
      "y" : 4.5
    },
    "zonePrefix" : "M",
    "heightIDX" : 5,
    "widthIDX" : 7,
    "zoneNumber" : 75,
    "observations" : [ ],
    "explorationState" : "UNEXPLORED",
    "zoneState" : "VALID",
    "machine" : "C-RS1",
    "zoneOccupiedState" : "MACHINE"
  }, {
    "zone_id" : null,
    "zoneName" : "C_Z75",
    "teamColor" : null,
    "occupied" : "UNKNOWN",
    "zoneCenter" : {
      "x" : 6.5,
      "y" : 4.5
    },
    "zonePrefix" : "C",
    "heightIDX" : 5,
    "widthIDX" : 7,
    "zoneNumber" : 75,
    "observations" : [ ],
    "explorationState" : "UNEXPLORED",
    "zoneState" : "VALID",
    "machine" : "M-RS1",
    "zoneOccupiedState" : "MACHINE"
  }, {
    "zone_id" : null,
    "zoneName" : "M_Z76",
    "teamColor" : null,
    "occupied" : "UNKNOWN",
    "zoneCenter" : {
      "x" : -6.5,
      "y" : 5.5
    },
    "zonePrefix" : "M",
    "heightIDX" : 6,
    "widthIDX" : 7,
    "zoneNumber" : 76,
    "observations" : [ ],
    "explorationState" : "UNEXPLORED",
    "zoneState" : "VALID",
    "machine" : null,
    "zoneOccupiedState" : "BLOCKED"
  }, {
    "zone_id" : null,
    "zoneName" : "C_Z76",
    "teamColor" : null,
    "occupied" : "UNKNOWN",
    "zoneCenter" : {
      "x" : 6.5,
      "y" : 5.5
    },
    "zonePrefix" : "C",
    "heightIDX" : 6,
    "widthIDX" : 7,
    "zoneNumber" : 76,
    "observations" : [ ],
    "explorationState" : "UNEXPLORED",
    "zoneState" : "VALID",
    "machine" : null,
    "zoneOccupiedState" : "BLOCKED"
  }, {
    "zone_id" : null,
    "zoneName" : "M_Z77",
    "teamColor" : null,
    "occupied" : "UNKNOWN",
    "zoneCenter" : {
      "x" : -6.5,
      "y" : 6.5
    },
    "zonePrefix" : "M",
    "heightIDX" : 7,
    "widthIDX" : 7,
    "zoneNumber" : 77,
    "observations" : [ ],
    "explorationState" : "UNEXPLORED",
    "zoneState" : "VALID",
    "machine" : null,
    "zoneOccupiedState" : "BLOCKED"
  }, {
    "zone_id" : null,
    "zoneName" : "C_Z77",
    "teamColor" : null,
    "occupied" : "UNKNOWN",
    "zoneCenter" : {
      "x" : 6.5,
      "y" : 6.5
    },
    "zonePrefix" : "C",
    "heightIDX" : 7,
    "widthIDX" : 7,
    "zoneNumber" : 77,
    "observations" : [ ],
    "explorationState" : "UNEXPLORED",
    "zoneState" : "VALID",
    "machine" : null,
    "zoneOccupiedState" : "BLOCKED"
  }, {
    "zone_id" : null,
    "zoneName" : "M_Z78",
    "teamColor" : null,
    "occupied" : "UNKNOWN",
    "zoneCenter" : {
      "x" : -6.5,
      "y" : 7.5
    },
    "zonePrefix" : "M",
    "heightIDX" : 8,
    "widthIDX" : 7,
    "zoneNumber" : 78,
    "observations" : [ ],
    "explorationState" : "UNEXPLORED",
    "zoneState" : "VALID",
    "machine" : null,
    "zoneOccupiedState" : "BLOCKED"
  }, {
    "zone_id" : null,
    "zoneName" : "C_Z78",
    "teamColor" : null,
    "occupied" : "UNKNOWN",
    "zoneCenter" : {
      "x" : 6.5,
      "y" : 7.5
    },
    "zonePrefix" : "C",
    "heightIDX" : 8,
    "widthIDX" : 7,
    "zoneNumber" : 78,
    "observations" : [ ],
    "explorationState" : "UNEXPLORED",
    "zoneState" : "VALID",
    "machine" : null,
    "zoneOccupiedState" : "BLOCKED"
  }, {
    "zone_id" : null,
    "zoneName" : "M_Z81",
    "teamColor" : null,
    "occupied" : "UNKNOWN",
    "zoneCenter" : {
      "x" : -7.5,
      "y" : 0.5
    },
    "zonePrefix" : "M",
    "heightIDX" : 1,
    "widthIDX" : 8,
    "zoneNumber" : 81,
    "observations" : [ ],
    "explorationState" : "UNEXPLORED",
    "zoneState" : "VALID",
    "machine" : null,
    "zoneOccupiedState" : "FREE"
  }, {
    "zone_id" : null,
    "zoneName" : "C_Z81",
    "teamColor" : null,
    "occupied" : "UNKNOWN",
    "zoneCenter" : {
      "x" : 7.5,
      "y" : 0.5
    },
    "zonePrefix" : "C",
    "heightIDX" : 1,
    "widthIDX" : 8,
    "zoneNumber" : 81,
    "observations" : [ ],
    "explorationState" : "UNEXPLORED",
    "zoneState" : "VALID",
    "machine" : null,
    "zoneOccupiedState" : "FREE"
  }, {
    "zone_id" : null,
    "zoneName" : "M_Z82",
    "teamColor" : null,
    "occupied" : "UNKNOWN",
    "zoneCenter" : {
      "x" : -7.5,
      "y" : 1.5
    },
    "zonePrefix" : "M",
    "heightIDX" : 2,
    "widthIDX" : 8,
    "zoneNumber" : 82,
    "observations" : [ ],
    "explorationState" : "UNEXPLORED",
    "zoneState" : "VALID",
    "machine" : null,
    "zoneOccupiedState" : "FREE"
  }, {
    "zone_id" : null,
    "zoneName" : "C_Z82",
    "teamColor" : null,
    "occupied" : "UNKNOWN",
    "zoneCenter" : {
      "x" : 7.5,
      "y" : 1.5
    },
    "zonePrefix" : "C",
    "heightIDX" : 2,
    "widthIDX" : 8,
    "zoneNumber" : 82,
    "observations" : [ ],
    "explorationState" : "UNEXPLORED",
    "zoneState" : "VALID",
    "machine" : null,
    "zoneOccupiedState" : "FREE"
  }, {
    "zone_id" : null,
    "zoneName" : "M_Z83",
    "teamColor" : null,
    "occupied" : "UNKNOWN",
    "zoneCenter" : {
      "x" : -7.5,
      "y" : 2.5
    },
    "zonePrefix" : "M",
    "heightIDX" : 3,
    "widthIDX" : 8,
    "zoneNumber" : 83,
    "observations" : [ ],
    "explorationState" : "UNEXPLORED",
    "zoneState" : "VALID",
    "machine" : null,
    "zoneOccupiedState" : "FREE"
  }, {
    "zone_id" : null,
    "zoneName" : "C_Z83",
    "teamColor" : null,
    "occupied" : "UNKNOWN",
    "zoneCenter" : {
      "x" : 7.5,
      "y" : 2.5
    },
    "zonePrefix" : "C",
    "heightIDX" : 3,
    "widthIDX" : 8,
    "zoneNumber" : 83,
    "observations" : [ ],
    "explorationState" : "UNEXPLORED",
    "zoneState" : "VALID",
    "machine" : null,
    "zoneOccupiedState" : "FREE"
  }, {
    "zone_id" : null,
    "zoneName" : "M_Z84",
    "teamColor" : null,
    "occupied" : "UNKNOWN",
    "zoneCenter" : {
      "x" : -7.5,
      "y" : 3.5
    },
    "zonePrefix" : "M",
    "heightIDX" : 4,
    "widthIDX" : 8,
    "zoneNumber" : 84,
    "observations" : [ ],
    "explorationState" : "UNEXPLORED",
    "zoneState" : "VALID",
    "machine" : null,
    "zoneOccupiedState" : "FREE"
  }, {
    "zone_id" : null,
    "zoneName" : "C_Z84",
    "teamColor" : null,
    "occupied" : "UNKNOWN",
    "zoneCenter" : {
      "x" : 7.5,
      "y" : 3.5
    },
    "zonePrefix" : "C",
    "heightIDX" : 4,
    "widthIDX" : 8,
    "zoneNumber" : 84,
    "observations" : [ ],
    "explorationState" : "UNEXPLORED",
    "zoneState" : "VALID",
    "machine" : null,
    "zoneOccupiedState" : "FREE"
  }, {
    "zone_id" : null,
    "zoneName" : "M_Z85",
    "teamColor" : null,
    "occupied" : "UNKNOWN",
    "zoneCenter" : {
      "x" : -7.5,
      "y" : 4.5
    },
    "zonePrefix" : "M",
    "heightIDX" : 5,
    "widthIDX" : 8,
    "zoneNumber" : 85,
    "observations" : [ ],
    "explorationState" : "UNEXPLORED",
    "zoneState" : "VALID",
    "machine" : null,
    "zoneOccupiedState" : "FREE"
  }, {
    "zone_id" : null,
    "zoneName" : "C_Z85",
    "teamColor" : null,
    "occupied" : "UNKNOWN",
    "zoneCenter" : {
      "x" : 7.5,
      "y" : 4.5
    },
    "zonePrefix" : "C",
    "heightIDX" : 5,
    "widthIDX" : 8,
    "zoneNumber" : 85,
    "observations" : [ ],
    "explorationState" : "UNEXPLORED",
    "zoneState" : "VALID",
    "machine" : null,
    "zoneOccupiedState" : "FREE"
  }, {
    "zone_id" : null,
    "zoneName" : "M_Z86",
    "teamColor" : null,
    "occupied" : "UNKNOWN",
    "zoneCenter" : {
      "x" : -7.5,
      "y" : 5.5
    },
    "zonePrefix" : "M",
    "heightIDX" : 6,
    "widthIDX" : 8,
    "zoneNumber" : 86,
    "observations" : [ ],
    "explorationState" : "UNEXPLORED",
    "zoneState" : "VALID",
    "machine" : null,
    "zoneOccupiedState" : "FREE"
  }, {
    "zone_id" : null,
    "zoneName" : "C_Z86",
    "teamColor" : null,
    "occupied" : "UNKNOWN",
    "zoneCenter" : {
      "x" : 7.5,
      "y" : 5.5
    },
    "zonePrefix" : "C",
    "heightIDX" : 6,
    "widthIDX" : 8,
    "zoneNumber" : 86,
    "observations" : [ ],
    "explorationState" : "UNEXPLORED",
    "zoneState" : "VALID",
    "machine" : null,
    "zoneOccupiedState" : "FREE"
  }, {
    "zone_id" : null,
    "zoneName" : "M_Z87",
    "teamColor" : null,
    "occupied" : "UNKNOWN",
    "zoneCenter" : {
      "x" : -7.5,
      "y" : 6.5
    },
    "zonePrefix" : "M",
    "heightIDX" : 7,
    "widthIDX" : 8,
    "zoneNumber" : 87,
    "observations" : [ ],
    "explorationState" : "UNEXPLORED",
    "zoneState" : "VALID",
    "machine" : null,
    "zoneOccupiedState" : "FREE"
  }, {
    "zone_id" : null,
    "zoneName" : "C_Z87",
    "teamColor" : null,
    "occupied" : "UNKNOWN",
    "zoneCenter" : {
      "x" : 7.5,
      "y" : 6.5
    },
    "zonePrefix" : "C",
    "heightIDX" : 7,
    "widthIDX" : 8,
    "zoneNumber" : 87,
    "observations" : [ ],
    "explorationState" : "UNEXPLORED",
    "zoneState" : "VALID",
    "machine" : null,
    "zoneOccupiedState" : "FREE"
  }, {
    "zone_id" : null,
    "zoneName" : "M_Z88",
    "teamColor" : null,
    "occupied" : "UNKNOWN",
    "zoneCenter" : {
      "x" : -7.5,
      "y" : 7.5
    },
    "zonePrefix" : "M",
    "heightIDX" : 8,
    "widthIDX" : 8,
    "zoneNumber" : 88,
    "observations" : [ ],
    "explorationState" : "UNEXPLORED",
    "zoneState" : "VALID",
    "machine" : null,
    "zoneOccupiedState" : "FREE"
  }, {
    "zone_id" : null,
    "zoneName" : "C_Z88",
    "teamColor" : null,
    "occupied" : "UNKNOWN",
    "zoneCenter" : {
      "x" : 7.5,
      "y" : 7.5
    },
    "zonePrefix" : "C",
    "heightIDX" : 8,
    "widthIDX" : 8,
    "zoneNumber" : 88,
    "observations" : [ ],
    "explorationState" : "UNEXPLORED",
    "zoneState" : "VALID",
    "machine" : null,
    "zoneOccupiedState" : "FREE"
  }, {
    "zone_id" : null,
    "zoneName" : "M_Z91",
    "teamColor" : null,
    "occupied" : "UNKNOWN",
    "zoneCenter" : {
      "x" : -8.5,
      "y" : 0.5
    },
    "zonePrefix" : "M",
    "heightIDX" : 1,
    "widthIDX" : 9,
    "zoneNumber" : 91,
    "observations" : [ ],
    "explorationState" : "UNEXPLORED",
    "zoneState" : "VALID",
    "machine" : null,
    "zoneOccupiedState" : "FREE"
  }, {
    "zone_id" : null,
    "zoneName" : "C_Z91",
    "teamColor" : null,
    "occupied" : "UNKNOWN",
    "zoneCenter" : {
      "x" : 8.5,
      "y" : 0.5
    },
    "zonePrefix" : "C",
    "heightIDX" : 1,
    "widthIDX" : 9,
    "zoneNumber" : 91,
    "observations" : [ ],
    "explorationState" : "UNEXPLORED",
    "zoneState" : "VALID",
    "machine" : null,
    "zoneOccupiedState" : "FREE"
  }, {
    "zone_id" : null,
    "zoneName" : "M_Z92",
    "teamColor" : null,
    "occupied" : "UNKNOWN",
    "zoneCenter" : {
      "x" : -8.5,
      "y" : 1.5
    },
    "zonePrefix" : "M",
    "heightIDX" : 2,
    "widthIDX" : 9,
    "zoneNumber" : 92,
    "observations" : [ ],
    "explorationState" : "UNEXPLORED",
    "zoneState" : "VALID",
    "machine" : null,
    "zoneOccupiedState" : "FREE"
  }, {
    "zone_id" : null,
    "zoneName" : "C_Z92",
    "teamColor" : null,
    "occupied" : "UNKNOWN",
    "zoneCenter" : {
      "x" : 8.5,
      "y" : 1.5
    },
    "zonePrefix" : "C",
    "heightIDX" : 2,
    "widthIDX" : 9,
    "zoneNumber" : 92,
    "observations" : [ ],
    "explorationState" : "UNEXPLORED",
    "zoneState" : "VALID",
    "machine" : null,
    "zoneOccupiedState" : "FREE"
  }, {
    "zone_id" : null,
    "zoneName" : "M_Z93",
    "teamColor" : null,
    "occupied" : "UNKNOWN",
    "zoneCenter" : {
      "x" : -8.5,
      "y" : 2.5
    },
    "zonePrefix" : "M",
    "heightIDX" : 3,
    "widthIDX" : 9,
    "zoneNumber" : 93,
    "observations" : [ ],
    "explorationState" : "UNEXPLORED",
    "zoneState" : "VALID",
    "machine" : null,
    "zoneOccupiedState" : "FREE"
  }, {
    "zone_id" : null,
    "zoneName" : "C_Z93",
    "teamColor" : null,
    "occupied" : "UNKNOWN",
    "zoneCenter" : {
      "x" : 8.5,
      "y" : 2.5
    },
    "zonePrefix" : "C",
    "heightIDX" : 3,
    "widthIDX" : 9,
    "zoneNumber" : 93,
    "observations" : [ ],
    "explorationState" : "UNEXPLORED",
    "zoneState" : "VALID",
    "machine" : null,
    "zoneOccupiedState" : "FREE"
  }, {
    "zone_id" : null,
    "zoneName" : "M_Z94",
    "teamColor" : null,
    "occupied" : "UNKNOWN",
    "zoneCenter" : {
      "x" : -8.5,
      "y" : 3.5
    },
    "zonePrefix" : "M",
    "heightIDX" : 4,
    "widthIDX" : 9,
    "zoneNumber" : 94,
    "observations" : [ ],
    "explorationState" : "UNEXPLORED",
    "zoneState" : "VALID",
    "machine" : null,
    "zoneOccupiedState" : "FREE"
  }, {
    "zone_id" : null,
    "zoneName" : "C_Z94",
    "teamColor" : null,
    "occupied" : "UNKNOWN",
    "zoneCenter" : {
      "x" : 8.5,
      "y" : 3.5
    },
    "zonePrefix" : "C",
    "heightIDX" : 4,
    "widthIDX" : 9,
    "zoneNumber" : 94,
    "observations" : [ ],
    "explorationState" : "UNEXPLORED",
    "zoneState" : "VALID",
    "machine" : null,
    "zoneOccupiedState" : "FREE"
  }, {
    "zone_id" : null,
    "zoneName" : "M_Z95",
    "teamColor" : null,
    "occupied" : "UNKNOWN",
    "zoneCenter" : {
      "x" : -8.5,
      "y" : 4.5
    },
    "zonePrefix" : "M",
    "heightIDX" : 5,
    "widthIDX" : 9,
    "zoneNumber" : 95,
    "observations" : [ ],
    "explorationState" : "UNEXPLORED",
    "zoneState" : "VALID",
    "machine" : null,
    "zoneOccupiedState" : "FREE"
  }, {
    "zone_id" : null,
    "zoneName" : "C_Z95",
    "teamColor" : null,
    "occupied" : "UNKNOWN",
    "zoneCenter" : {
      "x" : 8.5,
      "y" : 4.5
    },
    "zonePrefix" : "C",
    "heightIDX" : 5,
    "widthIDX" : 9,
    "zoneNumber" : 95,
    "observations" : [ ],
    "explorationState" : "UNEXPLORED",
    "zoneState" : "VALID",
    "machine" : null,
    "zoneOccupiedState" : "FREE"
  }, {
    "zone_id" : null,
    "zoneName" : "M_Z96",
    "teamColor" : null,
    "occupied" : "UNKNOWN",
    "zoneCenter" : {
      "x" : -8.5,
      "y" : 5.5
    },
    "zonePrefix" : "M",
    "heightIDX" : 6,
    "widthIDX" : 9,
    "zoneNumber" : 96,
    "observations" : [ ],
    "explorationState" : "UNEXPLORED",
    "zoneState" : "VALID",
    "machine" : null,
    "zoneOccupiedState" : "FREE"
  }, {
    "zone_id" : null,
    "zoneName" : "C_Z96",
    "teamColor" : null,
    "occupied" : "UNKNOWN",
    "zoneCenter" : {
      "x" : 8.5,
      "y" : 5.5
    },
    "zonePrefix" : "C",
    "heightIDX" : 6,
    "widthIDX" : 9,
    "zoneNumber" : 96,
    "observations" : [ ],
    "explorationState" : "UNEXPLORED",
    "zoneState" : "VALID",
    "machine" : null,
    "zoneOccupiedState" : "FREE"
  }, {
    "zone_id" : null,
    "zoneName" : "M_Z97",
    "teamColor" : null,
    "occupied" : "UNKNOWN",
    "zoneCenter" : {
      "x" : -8.5,
      "y" : 6.5
    },
    "zonePrefix" : "M",
    "heightIDX" : 7,
    "widthIDX" : 9,
    "zoneNumber" : 97,
    "observations" : [ ],
    "explorationState" : "UNEXPLORED",
    "zoneState" : "VALID",
    "machine" : null,
    "zoneOccupiedState" : "FREE"
  }, {
    "zone_id" : null,
    "zoneName" : "C_Z97",
    "teamColor" : null,
    "occupied" : "UNKNOWN",
    "zoneCenter" : {
      "x" : 8.5,
      "y" : 6.5
    },
    "zonePrefix" : "C",
    "heightIDX" : 7,
    "widthIDX" : 9,
    "zoneNumber" : 97,
    "observations" : [ ],
    "explorationState" : "UNEXPLORED",
    "zoneState" : "VALID",
    "machine" : null,
    "zoneOccupiedState" : "FREE"
  }, {
    "zone_id" : null,
    "zoneName" : "M_Z98",
    "teamColor" : null,
    "occupied" : "UNKNOWN",
    "zoneCenter" : {
      "x" : -8.5,
      "y" : 7.5
    },
    "zonePrefix" : "M",
    "heightIDX" : 8,
    "widthIDX" : 9,
    "zoneNumber" : 98,
    "observations" : [ ],
    "explorationState" : "UNEXPLORED",
    "zoneState" : "VALID",
    "machine" : null,
    "zoneOccupiedState" : "FREE"
  }, {
    "zone_id" : null,
    "zoneName" : "C_Z98",
    "teamColor" : null,
    "occupied" : "UNKNOWN",
    "zoneCenter" : {
      "x" : 8.5,
      "y" : 7.5
    },
    "zonePrefix" : "C",
    "heightIDX" : 8,
    "widthIDX" : 9,
    "zoneNumber" : 98,
    "observations" : [ ],
    "explorationState" : "UNEXPLORED",
    "zoneState" : "VALID",
    "machine" : null,
    "zoneOccupiedState" : "FREE"
  }, {
    "zone_id" : null,
    "zoneName" : "M_Z101",
    "teamColor" : null,
    "occupied" : "UNKNOWN",
    "zoneCenter" : {
      "x" : -9.5,
      "y" : 0.5
    },
    "zonePrefix" : "M",
    "heightIDX" : 1,
    "widthIDX" : 10,
    "zoneNumber" : 101,
    "observations" : [ ],
    "explorationState" : "UNEXPLORED",
    "zoneState" : "VALID",
    "machine" : null,
    "zoneOccupiedState" : "FREE"
  }, {
    "zone_id" : null,
    "zoneName" : "C_Z101",
    "teamColor" : null,
    "occupied" : "UNKNOWN",
    "zoneCenter" : {
      "x" : 9.5,
      "y" : 0.5
    },
    "zonePrefix" : "C",
    "heightIDX" : 1,
    "widthIDX" : 10,
    "zoneNumber" : 101,
    "observations" : [ ],
    "explorationState" : "UNEXPLORED",
    "zoneState" : "VALID",
    "machine" : null,
    "zoneOccupiedState" : "FREE"
  }, {
    "zone_id" : null,
    "zoneName" : "M_Z102",
    "teamColor" : null,
    "occupied" : "UNKNOWN",
    "zoneCenter" : {
      "x" : -9.5,
      "y" : 1.5
    },
    "zonePrefix" : "M",
    "heightIDX" : 2,
    "widthIDX" : 10,
    "zoneNumber" : 102,
    "observations" : [ ],
    "explorationState" : "UNEXPLORED",
    "zoneState" : "VALID",
    "machine" : null,
    "zoneOccupiedState" : "FREE"
  }, {
    "zone_id" : null,
    "zoneName" : "C_Z102",
    "teamColor" : null,
    "occupied" : "UNKNOWN",
    "zoneCenter" : {
      "x" : 9.5,
      "y" : 1.5
    },
    "zonePrefix" : "C",
    "heightIDX" : 2,
    "widthIDX" : 10,
    "zoneNumber" : 102,
    "observations" : [ ],
    "explorationState" : "UNEXPLORED",
    "zoneState" : "VALID",
    "machine" : null,
    "zoneOccupiedState" : "FREE"
  }, {
    "zone_id" : null,
    "zoneName" : "M_Z103",
    "teamColor" : null,
    "occupied" : "UNKNOWN",
    "zoneCenter" : {
      "x" : -9.5,
      "y" : 2.5
    },
    "zonePrefix" : "M",
    "heightIDX" : 3,
    "widthIDX" : 10,
    "zoneNumber" : 103,
    "observations" : [ ],
    "explorationState" : "UNEXPLORED",
    "zoneState" : "VALID",
    "machine" : null,
    "zoneOccupiedState" : "FREE"
  }, {
    "zone_id" : null,
    "zoneName" : "C_Z103",
    "teamColor" : null,
    "occupied" : "UNKNOWN",
    "zoneCenter" : {
      "x" : 9.5,
      "y" : 2.5
    },
    "zonePrefix" : "C",
    "heightIDX" : 3,
    "widthIDX" : 10,
    "zoneNumber" : 103,
    "observations" : [ ],
    "explorationState" : "UNEXPLORED",
    "zoneState" : "VALID",
    "machine" : null,
    "zoneOccupiedState" : "FREE"
  }, {
    "zone_id" : null,
    "zoneName" : "M_Z104",
    "teamColor" : null,
    "occupied" : "UNKNOWN",
    "zoneCenter" : {
      "x" : -9.5,
      "y" : 3.5
    },
    "zonePrefix" : "M",
    "heightIDX" : 4,
    "widthIDX" : 10,
    "zoneNumber" : 104,
    "observations" : [ ],
    "explorationState" : "UNEXPLORED",
    "zoneState" : "VALID",
    "machine" : null,
    "zoneOccupiedState" : "FREE"
  }, {
    "zone_id" : null,
    "zoneName" : "C_Z104",
    "teamColor" : null,
    "occupied" : "UNKNOWN",
    "zoneCenter" : {
      "x" : 9.5,
      "y" : 3.5
    },
    "zonePrefix" : "C",
    "heightIDX" : 4,
    "widthIDX" : 10,
    "zoneNumber" : 104,
    "observations" : [ ],
    "explorationState" : "UNEXPLORED",
    "zoneState" : "VALID",
    "machine" : null,
    "zoneOccupiedState" : "FREE"
  }, {
    "zone_id" : null,
    "zoneName" : "M_Z105",
    "teamColor" : null,
    "occupied" : "UNKNOWN",
    "zoneCenter" : {
      "x" : -9.5,
      "y" : 4.5
    },
    "zonePrefix" : "M",
    "heightIDX" : 5,
    "widthIDX" : 10,
    "zoneNumber" : 105,
    "observations" : [ ],
    "explorationState" : "UNEXPLORED",
    "zoneState" : "VALID",
    "machine" : null,
    "zoneOccupiedState" : "FREE"
  }, {
    "zone_id" : null,
    "zoneName" : "C_Z105",
    "teamColor" : null,
    "occupied" : "UNKNOWN",
    "zoneCenter" : {
      "x" : 9.5,
      "y" : 4.5
    },
    "zonePrefix" : "C",
    "heightIDX" : 5,
    "widthIDX" : 10,
    "zoneNumber" : 105,
    "observations" : [ ],
    "explorationState" : "UNEXPLORED",
    "zoneState" : "VALID",
    "machine" : null,
    "zoneOccupiedState" : "FREE"
  }, {
    "zone_id" : null,
    "zoneName" : "M_Z106",
    "teamColor" : null,
    "occupied" : "UNKNOWN",
    "zoneCenter" : {
      "x" : -9.5,
      "y" : 5.5
    },
    "zonePrefix" : "M",
    "heightIDX" : 6,
    "widthIDX" : 10,
    "zoneNumber" : 106,
    "observations" : [ ],
    "explorationState" : "UNEXPLORED",
    "zoneState" : "VALID",
    "machine" : null,
    "zoneOccupiedState" : "FREE"
  }, {
    "zone_id" : null,
    "zoneName" : "C_Z106",
    "teamColor" : null,
    "occupied" : "UNKNOWN",
    "zoneCenter" : {
      "x" : 9.5,
      "y" : 5.5
    },
    "zonePrefix" : "C",
    "heightIDX" : 6,
    "widthIDX" : 10,
    "zoneNumber" : 106,
    "observations" : [ ],
    "explorationState" : "UNEXPLORED",
    "zoneState" : "VALID",
    "machine" : null,
    "zoneOccupiedState" : "FREE"
  }, {
    "zone_id" : null,
    "zoneName" : "M_Z107",
    "teamColor" : null,
    "occupied" : "UNKNOWN",
    "zoneCenter" : {
      "x" : -9.5,
      "y" : 6.5
    },
    "zonePrefix" : "M",
    "heightIDX" : 7,
    "widthIDX" : 10,
    "zoneNumber" : 107,
    "observations" : [ ],
    "explorationState" : "UNEXPLORED",
    "zoneState" : "VALID",
    "machine" : null,
    "zoneOccupiedState" : "FREE"
  }, {
    "zone_id" : null,
    "zoneName" : "C_Z107",
    "teamColor" : null,
    "occupied" : "UNKNOWN",
    "zoneCenter" : {
      "x" : 9.5,
      "y" : 6.5
    },
    "zonePrefix" : "C",
    "heightIDX" : 7,
    "widthIDX" : 10,
    "zoneNumber" : 107,
    "observations" : [ ],
    "explorationState" : "UNEXPLORED",
    "zoneState" : "VALID",
    "machine" : null,
    "zoneOccupiedState" : "FREE"
  }, {
    "zone_id" : null,
    "zoneName" : "M_Z108",
    "teamColor" : null,
    "occupied" : "UNKNOWN",
    "zoneCenter" : {
      "x" : -9.5,
      "y" : 7.5
    },
    "zonePrefix" : "M",
    "heightIDX" : 8,
    "widthIDX" : 10,
    "zoneNumber" : 108,
    "observations" : [ ],
    "explorationState" : "UNEXPLORED",
    "zoneState" : "VALID",
    "machine" : null,
    "zoneOccupiedState" : "FREE"
  }, {
    "zone_id" : null,
    "zoneName" : "C_Z108",
    "teamColor" : null,
    "occupied" : "UNKNOWN",
    "zoneCenter" : {
      "x" : 9.5,
      "y" : 7.5
    },
    "zonePrefix" : "C",
    "heightIDX" : 8,
    "widthIDX" : 10,
    "zoneNumber" : 108,
    "observations" : [ ],
    "explorationState" : "UNEXPLORED",
    "zoneState" : "VALID",
    "machine" : null,
    "zoneOccupiedState" : "FREE"
  }, {
    "zone_id" : null,
    "zoneName" : "M_Z111",
    "teamColor" : null,
    "occupied" : "UNKNOWN",
    "zoneCenter" : {
      "x" : -10.5,
      "y" : 0.5
    },
    "zonePrefix" : "M",
    "heightIDX" : 1,
    "widthIDX" : 11,
    "zoneNumber" : 111,
    "observations" : [ ],
    "explorationState" : "UNEXPLORED",
    "zoneState" : "VALID",
    "machine" : null,
    "zoneOccupiedState" : "FREE"
  }, {
    "zone_id" : null,
    "zoneName" : "C_Z111",
    "teamColor" : null,
    "occupied" : "UNKNOWN",
    "zoneCenter" : {
      "x" : 10.5,
      "y" : 0.5
    },
    "zonePrefix" : "C",
    "heightIDX" : 1,
    "widthIDX" : 11,
    "zoneNumber" : 111,
    "observations" : [ ],
    "explorationState" : "UNEXPLORED",
    "zoneState" : "VALID",
    "machine" : null,
    "zoneOccupiedState" : "FREE"
  }, {
    "zone_id" : null,
    "zoneName" : "M_Z112",
    "teamColor" : null,
    "occupied" : "UNKNOWN",
    "zoneCenter" : {
      "x" : -10.5,
      "y" : 1.5
    },
    "zonePrefix" : "M",
    "heightIDX" : 2,
    "widthIDX" : 11,
    "zoneNumber" : 112,
    "observations" : [ ],
    "explorationState" : "UNEXPLORED",
    "zoneState" : "VALID",
    "machine" : null,
    "zoneOccupiedState" : "FREE"
  }, {
    "zone_id" : null,
    "zoneName" : "C_Z112",
    "teamColor" : null,
    "occupied" : "UNKNOWN",
    "zoneCenter" : {
      "x" : 10.5,
      "y" : 1.5
    },
    "zonePrefix" : "C",
    "heightIDX" : 2,
    "widthIDX" : 11,
    "zoneNumber" : 112,
    "observations" : [ ],
    "explorationState" : "UNEXPLORED",
    "zoneState" : "VALID",
    "machine" : null,
    "zoneOccupiedState" : "FREE"
  }, {
    "zone_id" : null,
    "zoneName" : "M_Z113",
    "teamColor" : null,
    "occupied" : "UNKNOWN",
    "zoneCenter" : {
      "x" : -10.5,
      "y" : 2.5
    },
    "zonePrefix" : "M",
    "heightIDX" : 3,
    "widthIDX" : 11,
    "zoneNumber" : 113,
    "observations" : [ ],
    "explorationState" : "UNEXPLORED",
    "zoneState" : "VALID",
    "machine" : null,
    "zoneOccupiedState" : "FREE"
  }, {
    "zone_id" : null,
    "zoneName" : "C_Z113",
    "teamColor" : null,
    "occupied" : "UNKNOWN",
    "zoneCenter" : {
      "x" : 10.5,
      "y" : 2.5
    },
    "zonePrefix" : "C",
    "heightIDX" : 3,
    "widthIDX" : 11,
    "zoneNumber" : 113,
    "observations" : [ ],
    "explorationState" : "UNEXPLORED",
    "zoneState" : "VALID",
    "machine" : null,
    "zoneOccupiedState" : "FREE"
  }, {
    "zone_id" : null,
    "zoneName" : "M_Z114",
    "teamColor" : null,
    "occupied" : "UNKNOWN",
    "zoneCenter" : {
      "x" : -10.5,
      "y" : 3.5
    },
    "zonePrefix" : "M",
    "heightIDX" : 4,
    "widthIDX" : 11,
    "zoneNumber" : 114,
    "observations" : [ ],
    "explorationState" : "UNEXPLORED",
    "zoneState" : "VALID",
    "machine" : null,
    "zoneOccupiedState" : "FREE"
  }, {
    "zone_id" : null,
    "zoneName" : "C_Z114",
    "teamColor" : null,
    "occupied" : "UNKNOWN",
    "zoneCenter" : {
      "x" : 10.5,
      "y" : 3.5
    },
    "zonePrefix" : "C",
    "heightIDX" : 4,
    "widthIDX" : 11,
    "zoneNumber" : 114,
    "observations" : [ ],
    "explorationState" : "UNEXPLORED",
    "zoneState" : "VALID",
    "machine" : null,
    "zoneOccupiedState" : "FREE"
  }, {
    "zone_id" : null,
    "zoneName" : "M_Z115",
    "teamColor" : null,
    "occupied" : "UNKNOWN",
    "zoneCenter" : {
      "x" : -10.5,
      "y" : 4.5
    },
    "zonePrefix" : "M",
    "heightIDX" : 5,
    "widthIDX" : 11,
    "zoneNumber" : 115,
    "observations" : [ ],
    "explorationState" : "UNEXPLORED",
    "zoneState" : "VALID",
    "machine" : null,
    "zoneOccupiedState" : "FREE"
  }, {
    "zone_id" : null,
    "zoneName" : "C_Z115",
    "teamColor" : null,
    "occupied" : "UNKNOWN",
    "zoneCenter" : {
      "x" : 10.5,
      "y" : 4.5
    },
    "zonePrefix" : "C",
    "heightIDX" : 5,
    "widthIDX" : 11,
    "zoneNumber" : 115,
    "observations" : [ ],
    "explorationState" : "UNEXPLORED",
    "zoneState" : "VALID",
    "machine" : null,
    "zoneOccupiedState" : "FREE"
  }, {
    "zone_id" : null,
    "zoneName" : "M_Z116",
    "teamColor" : null,
    "occupied" : "UNKNOWN",
    "zoneCenter" : {
      "x" : -10.5,
      "y" : 5.5
    },
    "zonePrefix" : "M",
    "heightIDX" : 6,
    "widthIDX" : 11,
    "zoneNumber" : 116,
    "observations" : [ ],
    "explorationState" : "UNEXPLORED",
    "zoneState" : "VALID",
    "machine" : null,
    "zoneOccupiedState" : "FREE"
  }, {
    "zone_id" : null,
    "zoneName" : "C_Z116",
    "teamColor" : null,
    "occupied" : "UNKNOWN",
    "zoneCenter" : {
      "x" : 10.5,
      "y" : 5.5
    },
    "zonePrefix" : "C",
    "heightIDX" : 6,
    "widthIDX" : 11,
    "zoneNumber" : 116,
    "observations" : [ ],
    "explorationState" : "UNEXPLORED",
    "zoneState" : "VALID",
    "machine" : null,
    "zoneOccupiedState" : "FREE"
  }, {
    "zone_id" : null,
    "zoneName" : "M_Z117",
    "teamColor" : null,
    "occupied" : "UNKNOWN",
    "zoneCenter" : {
      "x" : -10.5,
      "y" : 6.5
    },
    "zonePrefix" : "M",
    "heightIDX" : 7,
    "widthIDX" : 11,
    "zoneNumber" : 117,
    "observations" : [ ],
    "explorationState" : "UNEXPLORED",
    "zoneState" : "VALID",
    "machine" : null,
    "zoneOccupiedState" : "FREE"
  }, {
    "zone_id" : null,
    "zoneName" : "C_Z117",
    "teamColor" : null,
    "occupied" : "UNKNOWN",
    "zoneCenter" : {
      "x" : 10.5,
      "y" : 6.5
    },
    "zonePrefix" : "C",
    "heightIDX" : 7,
    "widthIDX" : 11,
    "zoneNumber" : 117,
    "observations" : [ ],
    "explorationState" : "UNEXPLORED",
    "zoneState" : "VALID",
    "machine" : null,
    "zoneOccupiedState" : "FREE"
  }, {
    "zone_id" : null,
    "zoneName" : "M_Z118",
    "teamColor" : null,
    "occupied" : "UNKNOWN",
    "zoneCenter" : {
      "x" : -10.5,
      "y" : 7.5
    },
    "zonePrefix" : "M",
    "heightIDX" : 8,
    "widthIDX" : 11,
    "zoneNumber" : 118,
    "observations" : [ ],
    "explorationState" : "UNEXPLORED",
    "zoneState" : "VALID",
    "machine" : null,
    "zoneOccupiedState" : "FREE"
  }, {
    "zone_id" : null,
    "zoneName" : "C_Z118",
    "teamColor" : null,
    "occupied" : "UNKNOWN",
    "zoneCenter" : {
      "x" : 10.5,
      "y" : 7.5
    },
    "zonePrefix" : "C",
    "heightIDX" : 8,
    "widthIDX" : 11,
    "zoneNumber" : 118,
    "observations" : [ ],
    "explorationState" : "UNEXPLORED",
    "zoneState" : "VALID",
    "machine" : null,
    "zoneOccupiedState" : "FREE"
  }, {
    "zone_id" : null,
    "zoneName" : "M_Z121",
    "teamColor" : null,
    "occupied" : "UNKNOWN",
    "zoneCenter" : {
      "x" : -11.5,
      "y" : 0.5
    },
    "zonePrefix" : "M",
    "heightIDX" : 1,
    "widthIDX" : 12,
    "zoneNumber" : 121,
    "observations" : [ ],
    "explorationState" : "UNEXPLORED",
    "zoneState" : "VALID",
    "machine" : null,
    "zoneOccupiedState" : "FREE"
  }, {
    "zone_id" : null,
    "zoneName" : "C_Z121",
    "teamColor" : null,
    "occupied" : "UNKNOWN",
    "zoneCenter" : {
      "x" : 11.5,
      "y" : 0.5
    },
    "zonePrefix" : "C",
    "heightIDX" : 1,
    "widthIDX" : 12,
    "zoneNumber" : 121,
    "observations" : [ ],
    "explorationState" : "UNEXPLORED",
    "zoneState" : "VALID",
    "machine" : null,
    "zoneOccupiedState" : "FREE"
  }, {
    "zone_id" : null,
    "zoneName" : "M_Z122",
    "teamColor" : null,
    "occupied" : "UNKNOWN",
    "zoneCenter" : {
      "x" : -11.5,
      "y" : 1.5
    },
    "zonePrefix" : "M",
    "heightIDX" : 2,
    "widthIDX" : 12,
    "zoneNumber" : 122,
    "observations" : [ ],
    "explorationState" : "UNEXPLORED",
    "zoneState" : "VALID",
    "machine" : null,
    "zoneOccupiedState" : "FREE"
  }, {
    "zone_id" : null,
    "zoneName" : "C_Z122",
    "teamColor" : null,
    "occupied" : "UNKNOWN",
    "zoneCenter" : {
      "x" : 11.5,
      "y" : 1.5
    },
    "zonePrefix" : "C",
    "heightIDX" : 2,
    "widthIDX" : 12,
    "zoneNumber" : 122,
    "observations" : [ ],
    "explorationState" : "UNEXPLORED",
    "zoneState" : "VALID",
    "machine" : null,
    "zoneOccupiedState" : "FREE"
  }, {
    "zone_id" : null,
    "zoneName" : "M_Z123",
    "teamColor" : null,
    "occupied" : "UNKNOWN",
    "zoneCenter" : {
      "x" : -11.5,
      "y" : 2.5
    },
    "zonePrefix" : "M",
    "heightIDX" : 3,
    "widthIDX" : 12,
    "zoneNumber" : 123,
    "observations" : [ ],
    "explorationState" : "UNEXPLORED",
    "zoneState" : "VALID",
    "machine" : null,
    "zoneOccupiedState" : "FREE"
  }, {
    "zone_id" : null,
    "zoneName" : "C_Z123",
    "teamColor" : null,
    "occupied" : "UNKNOWN",
    "zoneCenter" : {
      "x" : 11.5,
      "y" : 2.5
    },
    "zonePrefix" : "C",
    "heightIDX" : 3,
    "widthIDX" : 12,
    "zoneNumber" : 123,
    "observations" : [ ],
    "explorationState" : "UNEXPLORED",
    "zoneState" : "VALID",
    "machine" : null,
    "zoneOccupiedState" : "FREE"
  }, {
    "zone_id" : null,
    "zoneName" : "M_Z124",
    "teamColor" : null,
    "occupied" : "UNKNOWN",
    "zoneCenter" : {
      "x" : -11.5,
      "y" : 3.5
    },
    "zonePrefix" : "M",
    "heightIDX" : 4,
    "widthIDX" : 12,
    "zoneNumber" : 124,
    "observations" : [ ],
    "explorationState" : "UNEXPLORED",
    "zoneState" : "VALID",
    "machine" : null,
    "zoneOccupiedState" : "FREE"
  }, {
    "zone_id" : null,
    "zoneName" : "C_Z124",
    "teamColor" : null,
    "occupied" : "UNKNOWN",
    "zoneCenter" : {
      "x" : 11.5,
      "y" : 3.5
    },
    "zonePrefix" : "C",
    "heightIDX" : 4,
    "widthIDX" : 12,
    "zoneNumber" : 124,
    "observations" : [ ],
    "explorationState" : "UNEXPLORED",
    "zoneState" : "VALID",
    "machine" : null,
    "zoneOccupiedState" : "FREE"
  }, {
    "zone_id" : null,
    "zoneName" : "M_Z125",
    "teamColor" : null,
    "occupied" : "UNKNOWN",
    "zoneCenter" : {
      "x" : -11.5,
      "y" : 4.5
    },
    "zonePrefix" : "M",
    "heightIDX" : 5,
    "widthIDX" : 12,
    "zoneNumber" : 125,
    "observations" : [ ],
    "explorationState" : "UNEXPLORED",
    "zoneState" : "VALID",
    "machine" : null,
    "zoneOccupiedState" : "FREE"
  }, {
    "zone_id" : null,
    "zoneName" : "C_Z125",
    "teamColor" : null,
    "occupied" : "UNKNOWN",
    "zoneCenter" : {
      "x" : 11.5,
      "y" : 4.5
    },
    "zonePrefix" : "C",
    "heightIDX" : 5,
    "widthIDX" : 12,
    "zoneNumber" : 125,
    "observations" : [ ],
    "explorationState" : "UNEXPLORED",
    "zoneState" : "VALID",
    "machine" : null,
    "zoneOccupiedState" : "FREE"
  }, {
    "zone_id" : null,
    "zoneName" : "M_Z126",
    "teamColor" : null,
    "occupied" : "UNKNOWN",
    "zoneCenter" : {
      "x" : -11.5,
      "y" : 5.5
    },
    "zonePrefix" : "M",
    "heightIDX" : 6,
    "widthIDX" : 12,
    "zoneNumber" : 126,
    "observations" : [ ],
    "explorationState" : "UNEXPLORED",
    "zoneState" : "VALID",
    "machine" : null,
    "zoneOccupiedState" : "FREE"
  }, {
    "zone_id" : null,
    "zoneName" : "C_Z126",
    "teamColor" : null,
    "occupied" : "UNKNOWN",
    "zoneCenter" : {
      "x" : 11.5,
      "y" : 5.5
    },
    "zonePrefix" : "C",
    "heightIDX" : 6,
    "widthIDX" : 12,
    "zoneNumber" : 126,
    "observations" : [ ],
    "explorationState" : "UNEXPLORED",
    "zoneState" : "VALID",
    "machine" : null,
    "zoneOccupiedState" : "FREE"
  }, {
    "zone_id" : null,
    "zoneName" : "M_Z127",
    "teamColor" : null,
    "occupied" : "UNKNOWN",
    "zoneCenter" : {
      "x" : -11.5,
      "y" : 6.5
    },
    "zonePrefix" : "M",
    "heightIDX" : 7,
    "widthIDX" : 12,
    "zoneNumber" : 127,
    "observations" : [ ],
    "explorationState" : "UNEXPLORED",
    "zoneState" : "VALID",
    "machine" : null,
    "zoneOccupiedState" : "FREE"
  }, {
    "zone_id" : null,
    "zoneName" : "C_Z127",
    "teamColor" : null,
    "occupied" : "UNKNOWN",
    "zoneCenter" : {
      "x" : 11.5,
      "y" : 6.5
    },
    "zonePrefix" : "C",
    "heightIDX" : 7,
    "widthIDX" : 12,
    "zoneNumber" : 127,
    "observations" : [ ],
    "explorationState" : "UNEXPLORED",
    "zoneState" : "VALID",
    "machine" : null,
    "zoneOccupiedState" : "FREE"
  }, {
    "zone_id" : null,
    "zoneName" : "M_Z128",
    "teamColor" : null,
    "occupied" : "UNKNOWN",
    "zoneCenter" : {
      "x" : -11.5,
      "y" : 7.5
    },
    "zonePrefix" : "M",
    "heightIDX" : 8,
    "widthIDX" : 12,
    "zoneNumber" : 128,
    "observations" : [ ],
    "explorationState" : "UNEXPLORED",
    "zoneState" : "VALID",
    "machine" : null,
    "zoneOccupiedState" : "FREE"
  }, {
    "zone_id" : null,
    "zoneName" : "C_Z128",
    "teamColor" : null,
    "occupied" : "UNKNOWN",
    "zoneCenter" : {
      "x" : 11.5,
      "y" : 7.5
    },
    "zonePrefix" : "C",
    "heightIDX" : 8,
    "widthIDX" : 12,
    "zoneNumber" : 128,
    "observations" : [ ],
    "explorationState" : "UNEXPLORED",
    "zoneState" : "VALID",
    "machine" : null,
    "zoneOccupiedState" : "FREE"
  }, {
    "zone_id" : null,
    "zoneName" : "M_Z131",
    "teamColor" : null,
    "occupied" : "UNKNOWN",
    "zoneCenter" : {
      "x" : -12.5,
      "y" : 0.5
    },
    "zonePrefix" : "M",
    "heightIDX" : 1,
    "widthIDX" : 13,
    "zoneNumber" : 131,
    "observations" : [ ],
    "explorationState" : "UNEXPLORED",
    "zoneState" : "VALID",
    "machine" : null,
    "zoneOccupiedState" : "FREE"
  }, {
    "zone_id" : null,
    "zoneName" : "C_Z131",
    "teamColor" : null,
    "occupied" : "UNKNOWN",
    "zoneCenter" : {
      "x" : 12.5,
      "y" : 0.5
    },
    "zonePrefix" : "C",
    "heightIDX" : 1,
    "widthIDX" : 13,
    "zoneNumber" : 131,
    "observations" : [ ],
    "explorationState" : "UNEXPLORED",
    "zoneState" : "VALID",
    "machine" : null,
    "zoneOccupiedState" : "FREE"
  }, {
    "zone_id" : null,
    "zoneName" : "M_Z132",
    "teamColor" : null,
    "occupied" : "UNKNOWN",
    "zoneCenter" : {
      "x" : -12.5,
      "y" : 1.5
    },
    "zonePrefix" : "M",
    "heightIDX" : 2,
    "widthIDX" : 13,
    "zoneNumber" : 132,
    "observations" : [ ],
    "explorationState" : "UNEXPLORED",
    "zoneState" : "VALID",
    "machine" : null,
    "zoneOccupiedState" : "FREE"
  }, {
    "zone_id" : null,
    "zoneName" : "C_Z132",
    "teamColor" : null,
    "occupied" : "UNKNOWN",
    "zoneCenter" : {
      "x" : 12.5,
      "y" : 1.5
    },
    "zonePrefix" : "C",
    "heightIDX" : 2,
    "widthIDX" : 13,
    "zoneNumber" : 132,
    "observations" : [ ],
    "explorationState" : "UNEXPLORED",
    "zoneState" : "VALID",
    "machine" : null,
    "zoneOccupiedState" : "FREE"
  }, {
    "zone_id" : null,
    "zoneName" : "M_Z133",
    "teamColor" : null,
    "occupied" : "UNKNOWN",
    "zoneCenter" : {
      "x" : -12.5,
      "y" : 2.5
    },
    "zonePrefix" : "M",
    "heightIDX" : 3,
    "widthIDX" : 13,
    "zoneNumber" : 133,
    "observations" : [ ],
    "explorationState" : "UNEXPLORED",
    "zoneState" : "VALID",
    "machine" : null,
    "zoneOccupiedState" : "FREE"
  }, {
    "zone_id" : null,
    "zoneName" : "C_Z133",
    "teamColor" : null,
    "occupied" : "UNKNOWN",
    "zoneCenter" : {
      "x" : 12.5,
      "y" : 2.5
    },
    "zonePrefix" : "C",
    "heightIDX" : 3,
    "widthIDX" : 13,
    "zoneNumber" : 133,
    "observations" : [ ],
    "explorationState" : "UNEXPLORED",
    "zoneState" : "VALID",
    "machine" : null,
    "zoneOccupiedState" : "FREE"
  }, {
    "zone_id" : null,
    "zoneName" : "M_Z134",
    "teamColor" : null,
    "occupied" : "UNKNOWN",
    "zoneCenter" : {
      "x" : -12.5,
      "y" : 3.5
    },
    "zonePrefix" : "M",
    "heightIDX" : 4,
    "widthIDX" : 13,
    "zoneNumber" : 134,
    "observations" : [ ],
    "explorationState" : "UNEXPLORED",
    "zoneState" : "VALID",
    "machine" : null,
    "zoneOccupiedState" : "FREE"
  }, {
    "zone_id" : null,
    "zoneName" : "C_Z134",
    "teamColor" : null,
    "occupied" : "UNKNOWN",
    "zoneCenter" : {
      "x" : 12.5,
      "y" : 3.5
    },
    "zonePrefix" : "C",
    "heightIDX" : 4,
    "widthIDX" : 13,
    "zoneNumber" : 134,
    "observations" : [ ],
    "explorationState" : "UNEXPLORED",
    "zoneState" : "VALID",
    "machine" : null,
    "zoneOccupiedState" : "FREE"
  }, {
    "zone_id" : null,
    "zoneName" : "M_Z135",
    "teamColor" : null,
    "occupied" : "UNKNOWN",
    "zoneCenter" : {
      "x" : -12.5,
      "y" : 4.5
    },
    "zonePrefix" : "M",
    "heightIDX" : 5,
    "widthIDX" : 13,
    "zoneNumber" : 135,
    "observations" : [ ],
    "explorationState" : "UNEXPLORED",
    "zoneState" : "VALID",
    "machine" : null,
    "zoneOccupiedState" : "FREE"
  }, {
    "zone_id" : null,
    "zoneName" : "C_Z135",
    "teamColor" : null,
    "occupied" : "UNKNOWN",
    "zoneCenter" : {
      "x" : 12.5,
      "y" : 4.5
    },
    "zonePrefix" : "C",
    "heightIDX" : 5,
    "widthIDX" : 13,
    "zoneNumber" : 135,
    "observations" : [ ],
    "explorationState" : "UNEXPLORED",
    "zoneState" : "VALID",
    "machine" : null,
    "zoneOccupiedState" : "FREE"
  }, {
    "zone_id" : null,
    "zoneName" : "M_Z136",
    "teamColor" : null,
    "occupied" : "UNKNOWN",
    "zoneCenter" : {
      "x" : -12.5,
      "y" : 5.5
    },
    "zonePrefix" : "M",
    "heightIDX" : 6,
    "widthIDX" : 13,
    "zoneNumber" : 136,
    "observations" : [ ],
    "explorationState" : "UNEXPLORED",
    "zoneState" : "VALID",
    "machine" : null,
    "zoneOccupiedState" : "FREE"
  }, {
    "zone_id" : null,
    "zoneName" : "C_Z136",
    "teamColor" : null,
    "occupied" : "UNKNOWN",
    "zoneCenter" : {
      "x" : 12.5,
      "y" : 5.5
    },
    "zonePrefix" : "C",
    "heightIDX" : 6,
    "widthIDX" : 13,
    "zoneNumber" : 136,
    "observations" : [ ],
    "explorationState" : "UNEXPLORED",
    "zoneState" : "VALID",
    "machine" : null,
    "zoneOccupiedState" : "FREE"
  }, {
    "zone_id" : null,
    "zoneName" : "M_Z137",
    "teamColor" : null,
    "occupied" : "UNKNOWN",
    "zoneCenter" : {
      "x" : -12.5,
      "y" : 6.5
    },
    "zonePrefix" : "M",
    "heightIDX" : 7,
    "widthIDX" : 13,
    "zoneNumber" : 137,
    "observations" : [ ],
    "explorationState" : "UNEXPLORED",
    "zoneState" : "VALID",
    "machine" : null,
    "zoneOccupiedState" : "FREE"
  }, {
    "zone_id" : null,
    "zoneName" : "C_Z137",
    "teamColor" : null,
    "occupied" : "UNKNOWN",
    "zoneCenter" : {
      "x" : 12.5,
      "y" : 6.5
    },
    "zonePrefix" : "C",
    "heightIDX" : 7,
    "widthIDX" : 13,
    "zoneNumber" : 137,
    "observations" : [ ],
    "explorationState" : "UNEXPLORED",
    "zoneState" : "VALID",
    "machine" : null,
    "zoneOccupiedState" : "FREE"
  }, {
    "zone_id" : null,
    "zoneName" : "M_Z138",
    "teamColor" : null,
    "occupied" : "UNKNOWN",
    "zoneCenter" : {
      "x" : -12.5,
      "y" : 7.5
    },
    "zonePrefix" : "M",
    "heightIDX" : 8,
    "widthIDX" : 13,
    "zoneNumber" : 138,
    "observations" : [ ],
    "explorationState" : "UNEXPLORED",
    "zoneState" : "VALID",
    "machine" : null,
    "zoneOccupiedState" : "FREE"
  }, {
    "zone_id" : null,
    "zoneName" : "C_Z138",
    "teamColor" : null,
    "occupied" : "UNKNOWN",
    "zoneCenter" : {
      "x" : 12.5,
      "y" : 7.5
    },
    "zonePrefix" : "C",
    "heightIDX" : 8,
    "widthIDX" : 13,
    "zoneNumber" : 138,
    "observations" : [ ],
    "explorationState" : "UNEXPLORED",
    "zoneState" : "VALID",
    "machine" : null,
    "zoneOccupiedState" : "FREE"
  }, {
    "zone_id" : null,
    "zoneName" : "M_Z141",
    "teamColor" : null,
    "occupied" : "UNKNOWN",
    "zoneCenter" : {
      "x" : -13.5,
      "y" : 0.5
    },
    "zonePrefix" : "M",
    "heightIDX" : 1,
    "widthIDX" : 14,
    "zoneNumber" : 141,
    "observations" : [ ],
    "explorationState" : "UNEXPLORED",
    "zoneState" : "VALID",
    "machine" : null,
    "zoneOccupiedState" : "FREE"
  }, {
    "zone_id" : null,
    "zoneName" : "C_Z141",
    "teamColor" : null,
    "occupied" : "UNKNOWN",
    "zoneCenter" : {
      "x" : 13.5,
      "y" : 0.5
    },
    "zonePrefix" : "C",
    "heightIDX" : 1,
    "widthIDX" : 14,
    "zoneNumber" : 141,
    "observations" : [ ],
    "explorationState" : "UNEXPLORED",
    "zoneState" : "VALID",
    "machine" : null,
    "zoneOccupiedState" : "FREE"
  }, {
    "zone_id" : null,
    "zoneName" : "M_Z142",
    "teamColor" : null,
    "occupied" : "UNKNOWN",
    "zoneCenter" : {
      "x" : -13.5,
      "y" : 1.5
    },
    "zonePrefix" : "M",
    "heightIDX" : 2,
    "widthIDX" : 14,
    "zoneNumber" : 142,
    "observations" : [ ],
    "explorationState" : "UNEXPLORED",
    "zoneState" : "VALID",
    "machine" : null,
    "zoneOccupiedState" : "FREE"
  }, {
    "zone_id" : null,
    "zoneName" : "C_Z142",
    "teamColor" : null,
    "occupied" : "UNKNOWN",
    "zoneCenter" : {
      "x" : 13.5,
      "y" : 1.5
    },
    "zonePrefix" : "C",
    "heightIDX" : 2,
    "widthIDX" : 14,
    "zoneNumber" : 142,
    "observations" : [ ],
    "explorationState" : "UNEXPLORED",
    "zoneState" : "VALID",
    "machine" : null,
    "zoneOccupiedState" : "FREE"
  }, {
    "zone_id" : null,
    "zoneName" : "M_Z143",
    "teamColor" : null,
    "occupied" : "UNKNOWN",
    "zoneCenter" : {
      "x" : -13.5,
      "y" : 2.5
    },
    "zonePrefix" : "M",
    "heightIDX" : 3,
    "widthIDX" : 14,
    "zoneNumber" : 143,
    "observations" : [ ],
    "explorationState" : "UNEXPLORED",
    "zoneState" : "VALID",
    "machine" : null,
    "zoneOccupiedState" : "FREE"
  }, {
    "zone_id" : null,
    "zoneName" : "C_Z143",
    "teamColor" : null,
    "occupied" : "UNKNOWN",
    "zoneCenter" : {
      "x" : 13.5,
      "y" : 2.5
    },
    "zonePrefix" : "C",
    "heightIDX" : 3,
    "widthIDX" : 14,
    "zoneNumber" : 143,
    "observations" : [ ],
    "explorationState" : "UNEXPLORED",
    "zoneState" : "VALID",
    "machine" : null,
    "zoneOccupiedState" : "FREE"
  }, {
    "zone_id" : null,
    "zoneName" : "M_Z144",
    "teamColor" : null,
    "occupied" : "UNKNOWN",
    "zoneCenter" : {
      "x" : -13.5,
      "y" : 3.5
    },
    "zonePrefix" : "M",
    "heightIDX" : 4,
    "widthIDX" : 14,
    "zoneNumber" : 144,
    "observations" : [ ],
    "explorationState" : "UNEXPLORED",
    "zoneState" : "VALID",
    "machine" : null,
    "zoneOccupiedState" : "FREE"
  }, {
    "zone_id" : null,
    "zoneName" : "C_Z144",
    "teamColor" : null,
    "occupied" : "UNKNOWN",
    "zoneCenter" : {
      "x" : 13.5,
      "y" : 3.5
    },
    "zonePrefix" : "C",
    "heightIDX" : 4,
    "widthIDX" : 14,
    "zoneNumber" : 144,
    "observations" : [ ],
    "explorationState" : "UNEXPLORED",
    "zoneState" : "VALID",
    "machine" : null,
    "zoneOccupiedState" : "FREE"
  }, {
    "zone_id" : null,
    "zoneName" : "M_Z145",
    "teamColor" : null,
    "occupied" : "UNKNOWN",
    "zoneCenter" : {
      "x" : -13.5,
      "y" : 4.5
    },
    "zonePrefix" : "M",
    "heightIDX" : 5,
    "widthIDX" : 14,
    "zoneNumber" : 145,
    "observations" : [ ],
    "explorationState" : "UNEXPLORED",
    "zoneState" : "VALID",
    "machine" : null,
    "zoneOccupiedState" : "FREE"
  }, {
    "zone_id" : null,
    "zoneName" : "C_Z145",
    "teamColor" : null,
    "occupied" : "UNKNOWN",
    "zoneCenter" : {
      "x" : 13.5,
      "y" : 4.5
    },
    "zonePrefix" : "C",
    "heightIDX" : 5,
    "widthIDX" : 14,
    "zoneNumber" : 145,
    "observations" : [ ],
    "explorationState" : "UNEXPLORED",
    "zoneState" : "VALID",
    "machine" : null,
    "zoneOccupiedState" : "FREE"
  }, {
    "zone_id" : null,
    "zoneName" : "M_Z146",
    "teamColor" : null,
    "occupied" : "UNKNOWN",
    "zoneCenter" : {
      "x" : -13.5,
      "y" : 5.5
    },
    "zonePrefix" : "M",
    "heightIDX" : 6,
    "widthIDX" : 14,
    "zoneNumber" : 146,
    "observations" : [ ],
    "explorationState" : "UNEXPLORED",
    "zoneState" : "VALID",
    "machine" : null,
    "zoneOccupiedState" : "FREE"
  }, {
    "zone_id" : null,
    "zoneName" : "C_Z146",
    "teamColor" : null,
    "occupied" : "UNKNOWN",
    "zoneCenter" : {
      "x" : 13.5,
      "y" : 5.5
    },
    "zonePrefix" : "C",
    "heightIDX" : 6,
    "widthIDX" : 14,
    "zoneNumber" : 146,
    "observations" : [ ],
    "explorationState" : "UNEXPLORED",
    "zoneState" : "VALID",
    "machine" : null,
    "zoneOccupiedState" : "FREE"
  }, {
    "zone_id" : null,
    "zoneName" : "M_Z147",
    "teamColor" : null,
    "occupied" : "UNKNOWN",
    "zoneCenter" : {
      "x" : -13.5,
      "y" : 6.5
    },
    "zonePrefix" : "M",
    "heightIDX" : 7,
    "widthIDX" : 14,
    "zoneNumber" : 147,
    "observations" : [ ],
    "explorationState" : "UNEXPLORED",
    "zoneState" : "VALID",
    "machine" : null,
    "zoneOccupiedState" : "FREE"
  }, {
    "zone_id" : null,
    "zoneName" : "C_Z147",
    "teamColor" : null,
    "occupied" : "UNKNOWN",
    "zoneCenter" : {
      "x" : 13.5,
      "y" : 6.5
    },
    "zonePrefix" : "C",
    "heightIDX" : 7,
    "widthIDX" : 14,
    "zoneNumber" : 147,
    "observations" : [ ],
    "explorationState" : "UNEXPLORED",
    "zoneState" : "VALID",
    "machine" : null,
    "zoneOccupiedState" : "FREE"
  }, {
    "zone_id" : null,
    "zoneName" : "M_Z148",
    "teamColor" : null,
    "occupied" : "UNKNOWN",
    "zoneCenter" : {
      "x" : -13.5,
      "y" : 7.5
    },
    "zonePrefix" : "M",
    "heightIDX" : 8,
    "widthIDX" : 14,
    "zoneNumber" : 148,
    "observations" : [ ],
    "explorationState" : "UNEXPLORED",
    "zoneState" : "VALID",
    "machine" : null,
    "zoneOccupiedState" : "FREE"
  }, {
    "zone_id" : null,
    "zoneName" : "C_Z148",
    "teamColor" : null,
    "occupied" : "UNKNOWN",
    "zoneCenter" : {
      "x" : 13.5,
      "y" : 7.5
    },
    "zonePrefix" : "C",
    "heightIDX" : 8,
    "widthIDX" : 14,
    "zoneNumber" : 148,
    "observations" : [ ],
    "explorationState" : "UNEXPLORED",
    "zoneState" : "VALID",
    "machine" : null,
    "zoneOccupiedState" : "FREE"
  } ],
  "productOrders" : [ {
    "id" : 1,
    "complexity" : "C0",
    "deliveryPeriodBegin" : 0,
    "deliveryPeriodEnd" : 1020,
    "deliveryGate" : 1,
    "baseColor" : "BASE_BLACK",
    "capColor" : "CAP_GREY",
    "ringColors" : null,
    "ring1" : null,
    "ring2" : null,
    "ring3" : null,
    "quantityRequested" : 1,
    "quantityDeliveredCyan" : 0,
    "quantityDeliveredMagenta" : 0,
    "creationGameTime" : 0,
    "competitive" : false,
    "delivered" : false
  }, {
    "id" : 2,
    "complexity" : "C1",
    "deliveryPeriodBegin" : 0,
    "deliveryPeriodEnd" : 1020,
    "deliveryGate" : 1,
    "baseColor" : "BASE_SILVER",
    "capColor" : "CAP_GREY",
    "ringColors" : null,
    "ring1" : "RING_YELLOW",
    "ring2" : null,
    "ring3" : null,
    "quantityRequested" : 1,
    "quantityDeliveredCyan" : 0,
    "quantityDeliveredMagenta" : 0,
    "creationGameTime" : 0,
    "competitive" : false,
    "delivered" : false
  }, {
    "id" : 4,
    "complexity" : "C3",
    "deliveryPeriodBegin" : 792,
    "deliveryPeriodEnd" : 968,
    "deliveryGate" : 2,
    "baseColor" : "BASE_BLACK",
    "capColor" : "CAP_BLACK",
    "ringColors" : null,
    "ring1" : "RING_ORANGE",
    "ring2" : "RING_BLUE",
    "ring3" : "RING_GREEN",
    "quantityRequested" : 1,
    "quantityDeliveredCyan" : 0,
    "quantityDeliveredMagenta" : 0,
    "creationGameTime" : 0,
    "competitive" : false,
    "delivered" : false
  } ],
  "rings" : [ {
    "ringColor" : "RING_BLUE",
    "rawMaterial" : 0
  }, {
    "ringColor" : "RING_GREEN",
    "rawMaterial" : 0
  }, {
    "ringColor" : "RING_ORANGE",
    "rawMaterial" : 1
  }, {
    "ringColor" : "RING_YELLOW",
    "rawMaterial" : 2
  } ]
}, {
  "gameState" : {
    "id" : 86,
    "teamCyan" : "GRIPS",
    "teamMagenta" : "",
    "pointsCyan" : 0,
    "pointsMagenta" : 0,
    "gameTimeNanoSeconds" : 9687851000,
    "state" : "RUNNING",
    "phase" : "PRODUCTION",
    "gripsColor" : "CYAN"
  },
  "timeStamp" : 1641916212590,
  "activeProductTasks" : [ ],
  "activePartDemands" : [ ],
  "activeLockParts" : [ ],
  "robotBeaconSignals" : [ {
    "beaconSignalId" : 105,
    "seq" : 13,
    "teamColor" : "CYAN",
    "timeNanoSeconds" : 1641916194778606077,
    "robotId" : "1",
    "robotName" : "R_1: Grips1",
    "teamName" : "Grips",
    "poseX" : 4.829433917999268,
    "poseY" : 1.7233248949050903,
    "poseTheta" : 0.0,
    "localTimestamp" : 1641916194924,
    "holdProduct" : false,
    "taskId" : 1,
    "oprsStack" : null
  }, {
    "beaconSignalId" : 111,
    "seq" : 9,
    "teamColor" : "CYAN",
    "timeNanoSeconds" : 1641916198532955567,
    "robotId" : "2",
    "robotName" : "R_2: Grips2",
    "teamName" : "Grips",
    "poseX" : 5.500000476837158,
    "poseY" : 0.4999999701976776,
    "poseTheta" : 0.0,
    "localTimestamp" : 1641916198818,
    "holdProduct" : false,
    "taskId" : -1,
    "oprsStack" : null
  }, {
    "beaconSignalId" : 107,
    "seq" : 9,
    "teamColor" : "CYAN",
    "timeNanoSeconds" : 1641916195972976572,
    "robotId" : "3",
    "robotName" : "R_3: Grips3",
    "teamName" : "Grips",
    "poseX" : 6.500000476837158,
    "poseY" : 0.4999999403953552,
    "poseTheta" : 0.0,
    "localTimestamp" : 1641916196076,
    "holdProduct" : false,
    "taskId" : -1,
    "oprsStack" : null
  } ],
  "explorationZones" : null,
  "productOrders" : [ {
    "id" : 1,
    "complexity" : "C0",
    "deliveryPeriodBegin" : 0,
    "deliveryPeriodEnd" : 1020,
    "deliveryGate" : 1,
    "baseColor" : "BASE_BLACK",
    "capColor" : "CAP_GREY",
    "ringColors" : null,
    "ring1" : null,
    "ring2" : null,
    "ring3" : null,
    "quantityRequested" : 1,
    "quantityDeliveredCyan" : 0,
    "quantityDeliveredMagenta" : 0,
    "creationGameTime" : 0,
    "competitive" : false,
    "delivered" : false
  }, {
    "id" : 2,
    "complexity" : "C1",
    "deliveryPeriodBegin" : 0,
    "deliveryPeriodEnd" : 1020,
    "deliveryGate" : 1,
    "baseColor" : "BASE_SILVER",
    "capColor" : "CAP_GREY",
    "ringColors" : null,
    "ring1" : "RING_YELLOW",
    "ring2" : null,
    "ring3" : null,
    "quantityRequested" : 1,
    "quantityDeliveredCyan" : 0,
    "quantityDeliveredMagenta" : 0,
    "creationGameTime" : 0,
    "competitive" : false,
    "delivered" : false
  }, {
    "id" : 4,
    "complexity" : "C3",
    "deliveryPeriodBegin" : 792,
    "deliveryPeriodEnd" : 968,
    "deliveryGate" : 2,
    "baseColor" : "BASE_BLACK",
    "capColor" : "CAP_BLACK",
    "ringColors" : null,
    "ring1" : "RING_ORANGE",
    "ring2" : "RING_BLUE",
    "ring3" : "RING_GREEN",
    "quantityRequested" : 1,
    "quantityDeliveredCyan" : 0,
    "quantityDeliveredMagenta" : 0,
    "creationGameTime" : 0,
    "competitive" : false,
    "delivered" : false
  } ],
  "rings" : [ {
    "ringColor" : "RING_BLUE",
    "rawMaterial" : 0
  }, {
    "ringColor" : "RING_GREEN",
    "rawMaterial" : 0
  }, {
    "ringColor" : "RING_ORANGE",
    "rawMaterial" : 1
  }, {
    "ringColor" : "RING_YELLOW",
    "rawMaterial" : 2
  } ]
} ]